guid,title,description,media:content,media:thumbnail
6021357670001,"
This North Carolina Breakfast Biscuit Chain Needs to be Everywhere
","
It's called Biscuitville, it's a chain, it's been around since 1966, and it's ridiculously good.
",https://timeincsecure-a.akamaihd.net/rtmp_uds/1660653193/201904/2360/1660653193_6021364497001_6021357670001.mp4?pubId=1660653193&videoId=6021357670001,https://timeincsecure-a.akamaihd.net/rtmp_uds/1660653193/201904/2360/1660653193_6021372547001_6021357670001-th.jpg?pubId=1660653193&videoId=6021357670001
6021343159001,11 Beautiful Cakes to Make for Easter,"
They’re bright, colorful, reminiscent of spring and appropriate to eat at any hour of the day.
",https://timeincsecure-a.akamaihd.net/rtmp_uds/1660653193/201904/2080/1660653193_6021342547001_6021343159001.mp4?pubId=1660653193&videoId=6021343159001,https://timeincsecure-a.akamaihd.net/rtmp_uds/1660653193/201904/2080/1660653193_6021364950001_6021343159001-vs.jpg?pubId=1660653193&videoId=6021343159001
6020266777001,"
Where to Eat in Europe, According to Michelin's 2019 Main Cities Guide
","
There are now 382 one-starred restaurants in the guide, which covers 38 cities in 22 countries.
",https://timeincsecure-a.akamaihd.net/rtmp_uds/1660653193/201903/16/1660653193_6020294230001_6020266777001.mp4?pubId=1660653193&videoId=6020266777001,https://timeincsecure-a.akamaihd.net/rtmp_uds/1660653193/201903/16/1660653193_6020285986001_6020266777001-th.jpg?pubId=1660653193&videoId=6020266777001
6020248635001,"
DoorDash Initiative Highlights Immigrant-Owned Restaurants
","
The delivery service's ""Kitchens Without Borders"" site launched with ten Bay Area restaurants.
",https://timeincsecure-a.akamaihd.net/rtmp_uds/1660653193/201903/2944/1660653193_6020273625001_6020248635001.mp4?pubId=1660653193&videoId=6020248635001,https://timeincsecure-a.akamaihd.net/rtmp_uds/1660653193/201903/2944/1660653193_6020273211001_6020248635001-th.jpg?pubId=1660653193&videoId=6020248635001
6020153918001,"
The 50 Fastest Growing Craft Breweries in America, According to the Brewers Association
","
The annual list showcases independent brewers of all sizes seeing major gains in production.
",https://timeincsecure-a.akamaihd.net/rtmp_uds/1660653193/201903/2808/1660653193_6020153551001_6020153918001.mp4?pubId=1660653193&videoId=6020153918001,https://timeincsecure-a.akamaihd.net/rtmp_uds/1660653193/201903/2808/1660653193_6020250034001_6020153918001-th.jpg?pubId=1660653193&videoId=6020153918001
6019535502001,"
Hazelnut Spread M&M's Are Here, and They Taste Like Nutella
",Hazelnut Spread M&Ms are here!,https://timeincsecure-a.akamaihd.net/rtmp_uds/1660653193/201903/392/1660653193_6019538515001_6019535502001.mp4?pubId=1660653193&videoId=6019535502001,https://timeincsecure-a.akamaihd.net/rtmp_uds/1660653193/201903/392/1660653193_6019535832001_6019535502001-vs.jpg?pubId=1660653193&videoId=6019535502001
6019387978001,11 Lodge Cast Iron Items to Upgrade Your Kitchen,"
More than skillets, these cast iron pieces from Lodge will help you get 2018 cookin'.
",https://timeincsecure-a.akamaihd.net/rtmp_uds/1660653193/201903/456/1660653193_6019391531001_6019387978001.mp4?pubId=1660653193&videoId=6019387978001,https://timeincsecure-a.akamaihd.net/rtmp_uds/1660653193/201903/456/1660653193_6019391282001_6019387978001-vs.jpg?pubId=1660653193&videoId=6019387978001
6019345002001,"
Martha Stewart Calls Out Guys Who Don't Know How to Grill
","
""I don't like the guys who stand out there pressing the food. Are you one of those?""
",https://timeincsecure-a.akamaihd.net/rtmp_uds/1660653193/201903/856/1660653193_6019346624001_6019345002001.mp4?pubId=1660653193&videoId=6019345002001,https://timeincsecure-a.akamaihd.net/rtmp_uds/1660653193/201903/856/1660653193_6019373966001_6019345002001-th.jpg?pubId=1660653193&videoId=6019345002001
6018931811001,"
Amy Poehler's 'Wine Country' Movie Was Inspired by Real Trips to Napa Valley With Her 'SNL' Pals
","
Poehler’s directorial debut is coming to Netflix on May 10.
",https://timeincsecure-a.akamaihd.net/rtmp_uds/1660653193/201903/2336/1660653193_6018932425001_6018931811001.mp4?pubId=1660653193&videoId=6018931811001,https://timeincsecure-a.akamaihd.net/rtmp_uds/1660653193/201903/2336/1660653193_6018954014001_6018931811001-th.jpg?pubId=1660653193&videoId=6018931811001
6015729485001,Roasted Cauliflower with Chef Michael Lewis,"
Chef Michael Lewis demonstrates how to make on of his restaurant KYU's most popular dishes; whole roasted cauliflower.
",https://timeincsecure-a.akamaihd.net/rtmp_uds/1660653193/201903/2191/1660653193_6015729258001_6015729485001.mp4?pubId=1660653193&videoId=6015729485001,https://timeincsecure-a.akamaihd.net/rtmp_uds/1660653193/201903/2191/1660653193_6018740496001_6015729485001-vs.jpg?pubId=1660653193&videoId=6015729485001
6018634324001,"
Europe's First Underwater Restaurant Is Terrifying and Beautiful
","
Under will accommodate 80 to 100 guests, who'll enter the restaurant at the shoreline's edge and then walk down below the ocean
",https://timeincsecure-a.akamaihd.net/rtmp_uds/1660653193/201903/840/1660653193_6018644939001_6018634324001.mp4?pubId=1660653193&videoId=6018634324001,https://timeincsecure-a.akamaihd.net/rtmp_uds/1660653193/201903/840/1660653193_6018668001001_6018634324001-th.jpg?pubId=1660653193&videoId=6018634324001
6018315534001,"
Martha Stewart Makes Brunch with Snoop Dogg and Talks Cookbooks, Cannabis, and Cod
","
The domestic goddess has more on her plate than ever before.
",https://timeincsecure-a.akamaihd.net/rtmp_uds/1660653193/201903/3752/1660653193_6018321162001_6018315534001.mp4?pubId=1660653193&videoId=6018315534001,https://timeincsecure-a.akamaihd.net/rtmp_uds/1660653193/201903/3752/1660653193_6018318646001_6018315534001-th.jpg?pubId=1660653193&videoId=6018315534001
6018316588001,We Tried Orange Vanilla Coke—Here Are Our Thoughts,Fans of Creamsicles and sherbet will be pleased.,https://timeincsecure-a.akamaihd.net/rtmp_uds/1660653193/201903/728/1660653193_6018322858001_6018316588001.mp4?pubId=1660653193&videoId=6018316588001,https://timeincsecure-a.akamaihd.net/rtmp_uds/1660653193/201903/728/1660653193_6018318658001_6018316588001-vs.jpg?pubId=1660653193&videoId=6018316588001
6018304431001,When Was the Last Time You Bought Milk?,"Like, from a cow.",https://timeincsecure-a.akamaihd.net/rtmp_uds/1660653193/201903/1664/1660653193_6018302980001_6018304431001.mp4?pubId=1660653193&videoId=6018304431001,https://timeincsecure-a.akamaihd.net/rtmp_uds/1660653193/201903/1664/1660653193_6018318630001_6018304431001-vs.jpg?pubId=1660653193&videoId=6018304431001
6018307647001,"
These Chocolate Easter Eggs Contain an Entire Bottle of Gin
",England really knows how to celebrate Easter.,https://timeincsecure-a.akamaihd.net/rtmp_uds/1660653193/201903/800/1660653193_6018308388001_6018307647001.mp4?pubId=1660653193&videoId=6018307647001,https://timeincsecure-a.akamaihd.net/rtmp_uds/1660653193/201903/800/1660653193_6018311007001_6018307647001-th.jpg?pubId=1660653193&videoId=6018307647001
6018122383001,Bouillabaisse,"
In this episode of Ludo à la Maison, chef Ludo prepares the classic seafood soup, Bouillabaisse.
",https://timeincsecure-a.akamaihd.net/rtmp_uds/1660653193/201903/3872/1660653193_6018123580001_6018122383001.mp4?pubId=1660653193&videoId=6018122383001,https://timeincsecure-a.akamaihd.net/rtmp_uds/1660653193/201903/3872/1660653193_6018213548001_6018122383001-vs.jpg?pubId=1660653193&videoId=6018122383001
6017882880001,5 Things Every Slow Cooker User Should Know,"
Sarah DiGregorio's Adventures in Slow Cooking is full of advice on stepping up your slow-cooking game.
",https://timeincsecure-a.akamaihd.net/rtmp_uds/1660653193/201903/280/1660653193_6018144305001_6017882880001.mp4?pubId=1660653193&videoId=6017882880001,https://timeincsecure-a.akamaihd.net/rtmp_uds/1660653193/201903/280/1660653193_6018144169001_6017882880001-vs.jpg?pubId=1660653193&videoId=6017882880001
6017883934001,"
Red Robin Gives Impossible Burger Its Largest Rollout Yet
","
The plant-based ""meat"" brand is also available at White Castle and other select restaurants.
",https://timeincsecure-a.akamaihd.net/rtmp_uds/1660653193/201903/2040/1660653193_6017889205001_6017883934001.mp4?pubId=1660653193&videoId=6017883934001,https://timeincsecure-a.akamaihd.net/rtmp_uds/1660653193/201903/2040/1660653193_6017888989001_6017883934001-th.jpg?pubId=1660653193&videoId=6017883934001
6017755069001,"
How to Make the Perfect Gin and Tonic, According to José Andrés
","
""In Spain, gin-tonic is not just a cocktail, it is an obsession,"" chef José Andrés says. Here are his tips for the perfect G&T.
",https://timeincsecure-a.akamaihd.net/rtmp_uds/1660653193/201903/80/1660653193_6017818652001_6017755069001.mp4?pubId=1660653193&videoId=6017755069001,https://timeincsecure-a.akamaihd.net/rtmp_uds/1660653193/201903/80/1660653193_6017815831001_6017755069001-vs.jpg?pubId=1660653193&videoId=6017755069001
6017090456001,Beer Drinking Explained,"
Learn what type of glass is best for different types of beer.
",https://timeincsecure-a.akamaihd.net/rtmp_uds/1660653193/201903/2103/1660653193_6017090288001_6017090456001.mp4?pubId=1660653193&videoId=6017090456001,https://timeincsecure-a.akamaihd.net/rtmp_uds/1660653193/201903/2103/1660653193_6017088427001_6017090456001-th.jpg?pubId=1660653193&videoId=6017090456001
6017084440001,Potato Rösti with Pastrami ,"
This crispy potato rosti is topped with pastrami and creme fraiche in this comforting winter dish.
",https://timeincsecure-a.akamaihd.net/rtmp_uds/1660653193/201903/3991/1660653193_6017088253001_6017084440001.mp4?pubId=1660653193&videoId=6017084440001,https://timeincsecure-a.akamaihd.net/rtmp_uds/1660653193/201903/3991/1660653193_6017088362001_6017084440001-vs.jpg?pubId=1660653193&videoId=6017084440001
6017085810001,French Rolled Omelet,Learn how to make the perfect French Omelet.,https://timeincsecure-a.akamaihd.net/rtmp_uds/1660653193/201903/647/1660653193_6017085361001_6017085810001.mp4?pubId=1660653193&videoId=6017085810001,https://timeincsecure-a.akamaihd.net/rtmp_uds/1660653193/201903/647/1660653193_6017088337001_6017085810001-th.jpg?pubId=1660653193&videoId=6017085810001
6017038154001,"
Anthony Bourdain Memorial Book to Be Released in May
","
Anthony Bourdain Rememberedis set to debut on May 28. The book will cull ""memoriesand anecdotes"" from fans,journalists, writers, and more. There will be commentary from Barack Obama, who famously grabbed beer and noodles with Bourdain in Hanoi. ...
",https://timeincsecure-a.akamaihd.net/rtmp_uds/1660653193/201903/57/1660653193_6017062125001_6017038154001.mp4?pubId=1660653193&videoId=6017038154001,https://timeincsecure-a.akamaihd.net/rtmp_uds/1660653193/201903/57/1660653193_6017060263001_6017038154001-th.jpg?pubId=1660653193&videoId=6017038154001
6017003987001,"
The Puerto Rican Pantry Staple That Chef Juan José Cuevas Uses on Everything
","
When Puerto Rican chefs wantto add a pop of flavor to theirplate, they reach for pique. The hot sauce is typically made with locally-grown chilis, fermented pineapple juice, and spices. Juan José Cuevas, executive chef at 1919 in San Juan's Cond...
",https://timeincsecure-a.akamaihd.net/rtmp_uds/1660653193/201903/3713/1660653193_6017020481001_6017003987001.mp4?pubId=1660653193&videoId=6017003987001,https://timeincsecure-a.akamaihd.net/rtmp_uds/1660653193/201903/3713/1660653193_6017020261001_6017003987001-vs.jpg?pubId=1660653193&videoId=6017003987001
6016959867001,"
10 Gas Station Foods Across the Country That Are Worth the Detour
","
Watery coffee, Slim Jims, and Twinkies aren't the only gas station food options.
",https://timeincsecure-a.akamaihd.net/rtmp_uds/1660653193/201903/2655/1660653193_6016964525001_6016959867001.mp4?pubId=1660653193&videoId=6016959867001,https://timeincsecure-a.akamaihd.net/rtmp_uds/1660653193/201903/2655/1660653193_6016983220001_6016959867001-th.jpg?pubId=1660653193&videoId=6016959867001
6016593426001,Sommeliers of the Year 2019,Remember these sommeliers!,https://timeincsecure-a.akamaihd.net/rtmp_uds/1660653193/201903/1753/1660653193_6016599654001_6016593426001.mp4?pubId=1660653193&videoId=6016593426001,https://timeincsecure-a.akamaihd.net/rtmp_uds/1660653193/201903/1753/1660653193_6016599791001_6016593426001-vs.jpg?pubId=1660653193&videoId=6016593426001
6016581413001,Shake Shack Tests Four-Day Work Week,Shake Shack may be moving to a four-day work week.,https://timeincsecure-a.akamaihd.net/rtmp_uds/1660653193/201903/1041/1660653193_6016583187001_6016581413001.mp4?pubId=1660653193&videoId=6016581413001,https://timeincsecure-a.akamaihd.net/rtmp_uds/1660653193/201903/1041/1660653193_6016583965001_6016581413001-th.jpg?pubId=1660653193&videoId=6016581413001
6016553431001,Science Finally Explains Why We Get Hangry,"Here's why we get hangry, according to science.",https://timeincsecure-a.akamaihd.net/rtmp_uds/1660653193/201903/3713/1660653193_6016558587001_6016553431001.mp4?pubId=1660653193&videoId=6016553431001,https://timeincsecure-a.akamaihd.net/rtmp_uds/1660653193/201903/3713/1660653193_6016580557001_6016553431001-vs.jpg?pubId=1660653193&videoId=6016553431001
6016235877001,"
'Chef's Table' Team Takes on Street Food for Netflix
",We have excellent news for Chef's Table fans.,https://timeincsecure-a.akamaihd.net/rtmp_uds/1660653193/201903/3663/1660653193_6016240121001_6016235877001.mp4?pubId=1660653193&videoId=6016235877001,https://timeincsecure-a.akamaihd.net/rtmp_uds/1660653193/201903/3663/1660653193_6016237810001_6016235877001-th.jpg?pubId=1660653193&videoId=6016235877001
6016107989001,15 Bread Baking Tools Every Home Baker Needs,"
Whether you're new to kneading or ready to mill your own flour, here's the gear you need to bake your best loaf.
",https://timeincsecure-a.akamaihd.net/rtmp_uds/1660653193/201903/2705/1660653193_6016112407001_6016107989001.mp4?pubId=1660653193&videoId=6016107989001,https://timeincsecure-a.akamaihd.net/rtmp_uds/1660653193/201903/2705/1660653193_6016118356001_6016107989001-th.jpg?pubId=1660653193&videoId=6016107989001
6016148746001,"
Questlove Launches Vegetarian Cheesesteak with Impossible Foods
","
As a Philadelphian, Questlove knows his cheesesteaks.
",https://timeincsecure-a.akamaihd.net/rtmp_uds/1660653193/201903/3513/1660653193_6016145798001_6016148746001.mp4?pubId=1660653193&videoId=6016148746001,https://timeincsecure-a.akamaihd.net/rtmp_uds/1660653193/201903/3513/1660653193_6016149334001_6016148746001-vs.jpg?pubId=1660653193&videoId=6016148746001
6016084368001,French Onion Soup,"
Chef Ludo Lefebvre shows how to make a classic and flavorful French Onion Soup.
",https://timeincsecure-a.akamaihd.net/rtmp_uds/1660653193/201903/631/1660653193_6016086890001_6016084368001.mp4?pubId=1660653193&videoId=6016084368001,https://timeincsecure-a.akamaihd.net/rtmp_uds/1660653193/201903/631/1660653193_6016092866001_6016084368001-th.jpg?pubId=1660653193&videoId=6016084368001
6016065802001,French Onion Soup,"
In this episode of Ludo à la Maison, chef Ludo prepares a classic French onion soup.
",https://timeincsecure-a.akamaihd.net/rtmp_uds/1660653193/201903/743/1660653193_6016067808001_6016065802001.mp4?pubId=1660653193&videoId=6016065802001,https://timeincsecure-a.akamaihd.net/rtmp_uds/1660653193/201903/743/1660653193_6016070155001_6016065802001-th.jpg?pubId=1660653193&videoId=6016065802001
6015765082001,How to Assemble a Charcuterie Board,"
David Bancroft, Executive Chef at Acre, shows how to assemble an elegant charcuterie board.
",https://timeincsecure-a.akamaihd.net/rtmp_uds/1660653193/201903/2439/1660653193_6015765574001_6015765082001.mp4?pubId=1660653193&videoId=6015765082001,https://timeincsecure-a.akamaihd.net/rtmp_uds/1660653193/201903/2439/1660653193_6015762079001_6015765082001-vs.jpg?pubId=1660653193&videoId=6015765082001
6015717072001,America's Best Jewish Delis,"
The Jewish deli is evolving, just like the rest of American cuisine.
",https://timeincsecure-a.akamaihd.net/rtmp_uds/1660653193/201903/3945/1660653193_6015718629001_6015717072001.mp4?pubId=1660653193&videoId=6015717072001,https://timeincsecure-a.akamaihd.net/rtmp_uds/1660653193/201903/3945/1660653193_6015742999001_6015717072001-vs.jpg?pubId=1660653193&videoId=6015717072001
6015676244001,"
When to Use Black, White, and Pink Peppercorns, According to Alex Guarnaschelli
",Do you know when to use these peppercorns?,https://timeincsecure-a.akamaihd.net/rtmp_uds/1660653193/201903/73/1660653193_6015688389001_6015676244001.mp4?pubId=1660653193&videoId=6015676244001,https://timeincsecure-a.akamaihd.net/rtmp_uds/1660653193/201903/73/1660653193_6015714915001_6015676244001-th.jpg?pubId=1660653193&videoId=6015676244001
6015710708001,How to Describe Wine,Ray Isle explains a few common wine descriptors.,https://timeincsecure-a.akamaihd.net/rtmp_uds/1660653193/201903/1737/1660653193_6015710690001_6015710708001.mp4?pubId=1660653193&videoId=6015710708001,https://timeincsecure-a.akamaihd.net/rtmp_uds/1660653193/201903/1737/1660653193_6015714893001_6015710708001-th.jpg?pubId=1660653193&videoId=6015710708001
6015673084001,5 Common Wine Mistakes to Avoid,"
Avoid these 5 common wine mistakes to truly enjoy your next glass.
",https://timeincsecure-a.akamaihd.net/rtmp_uds/1660653193/201903/1001/1660653193_6015680728001_6015673084001.mp4?pubId=1660653193&videoId=6015673084001,https://timeincsecure-a.akamaihd.net/rtmp_uds/1660653193/201903/1001/1660653193_6015714879001_6015673084001-th.jpg?pubId=1660653193&videoId=6015673084001
6015678305001,How to Chill Wine Quickly,"
F&W executive wine editor Ray Isle tests different wine chilling gadgets to see which one is the best way to chill wine. He tries out the Corkcicle, the Cooper Cooler, a Rabbit Wine Chilling Carafe, an Oeno Ice Chilling Wand, and a plain frozen spoon
",https://timeincsecure-a.akamaihd.net/rtmp_uds/1660653193/201903/175/1660653193_6015681607001_6015678305001.mp4?pubId=1660653193&videoId=6015678305001,https://timeincsecure-a.akamaihd.net/rtmp_uds/1660653193/201903/175/1660653193_6015714846001_6015678305001-th.jpg?pubId=1660653193&videoId=6015678305001
6015678304001,Ray Isle Tests Weird Amazon Wine Gadgets,"
From wine charms to aerating glasses, Ray Isle puts some unusual wine gadgets from Amazon to the test.
",https://timeincsecure-a.akamaihd.net/rtmp_uds/1660653193/201903/1175/1660653193_6015679317001_6015678304001.mp4?pubId=1660653193&videoId=6015678304001,https://timeincsecure-a.akamaihd.net/rtmp_uds/1660653193/201903/1175/1660653193_6015713029001_6015678304001-th.jpg?pubId=1660653193&videoId=6015678304001
6015666200001,When Is Ben & Jerry's Free Cone Day 2019?,"
Plus free treats from Dairy Queen and Häagen-Dazs, because there's no better way to ring in spring than with complimentary ice cream.
",https://timeincsecure-a.akamaihd.net/rtmp_uds/1660653193/201903/2281/1660653193_6015675674001_6015666200001.mp4?pubId=1660653193&videoId=6015666200001,https://timeincsecure-a.akamaihd.net/rtmp_uds/1660653193/201903/2281/1660653193_6015676385001_6015666200001-vs.jpg?pubId=1660653193&videoId=6015666200001
5831093875001,How Wine Glassware Affects Taste,"
F&W executive wine editor Ray Isle explains how glassware affects the taste of wine.
",https://timeincsecure-a.akamaihd.net/rtmp_uds/1660653193/201809/372/1660653193_5831100103001_5831093875001.mp4?pubId=1660653193&videoId=5831093875001,https://timeincsecure-a.akamaihd.net/rtmp_uds/1660653193/201903/372/1660653193_6015675147001_5831093875001-vs.jpg?pubId=1660653193&videoId=5831093875001
6015364295001,"
Donal Skehan Drinks Some Sour Cocktails and Rates Irish Stout
","
Ray Isle welcomes TV personality, cookbook author, and former pop-star, Donal Skehan to try three punchy cocktails. Which sour cocktail will Donal pick to Sip, Savor and Spit?
",https://timeincsecure-a.akamaihd.net/rtmp_uds/1660653193/201903/2433/1660653193_6015370717001_6015364295001.mp4?pubId=1660653193&videoId=6015364295001,https://timeincsecure-a.akamaihd.net/rtmp_uds/1660653193/201903/2433/1660653193_6015367630001_6015364295001-th.jpg?pubId=1660653193&videoId=6015364295001
6015324205001,"
Angry Orchard's Augmented Reality App Helps Pair Its Cider With Food
","
A quick scan of a bottle offers video tasting notes and recipe ideas.
",https://timeincsecure-a.akamaihd.net/rtmp_uds/1660653193/201903/1967/1660653193_6015352149001_6015324205001.mp4?pubId=1660653193&videoId=6015324205001,https://timeincsecure-a.akamaihd.net/rtmp_uds/1660653193/201903/1967/1660653193_6015351779001_6015324205001-vs.jpg?pubId=1660653193&videoId=6015324205001
6015297358001,"
People Reveal Their Food-Related Dating Deal-Breakers
","
""If we ever decide to order pizza and you suggest Little Caesars, you're automatically cancelled.""
",https://timeincsecure-a.akamaihd.net/rtmp_uds/1660653193/201903/89/1660653193_6015327863001_6015297358001.mp4?pubId=1660653193&videoId=6015297358001,https://timeincsecure-a.akamaihd.net/rtmp_uds/1660653193/201903/89/1660653193_6015330942001_6015297358001-th.jpg?pubId=1660653193&videoId=6015297358001
6014534202001,Iconic Chicago Deep Dish Spot Heads to Los Angeles,"
If you live in Los Angeles and love deep dish pizza, get pumped. Gino’s East, one of Chicago’s most iconic deep dish spots, is officially heading to the West Coast, reports Eater. The L.A. outpost is joining other franchise locations in Nashvill...
",https://timeincsecure-a.akamaihd.net/rtmp_uds/1660653193/201903/2809/1660653193_6014544668001_6014534202001.mp4?pubId=1660653193&videoId=6014534202001,https://timeincsecure-a.akamaihd.net/rtmp_uds/1660653193/201903/2809/1660653193_6014541250001_6014534202001-vs.jpg?pubId=1660653193&videoId=6014534202001
6014496314001,"
Coors Light Will Give You Free Beer When Bud Light Trolls Them
","
It's the latest development in the ""beer brewed with corn syrup"" debacle.
",https://timeincsecure-a.akamaihd.net/rtmp_uds/1660653193/201903/1817/1660653193_6014515992001_6014496314001.mp4?pubId=1660653193&videoId=6014496314001,https://timeincsecure-a.akamaihd.net/rtmp_uds/1660653193/201903/1817/1660653193_6014514984001_6014496314001-th.jpg?pubId=1660653193&videoId=6014496314001
6014464498001,7-Eleven Opened a Sit-Down Cafe Concept,"
The test location features a taco restaurant, ice cream station, and wine and beer on tap.
",https://timeincsecure-a.akamaihd.net/rtmp_uds/1660653193/201903/519/1660653193_6014466831001_6014464498001.mp4?pubId=1660653193&videoId=6014464498001,https://timeincsecure-a.akamaihd.net/rtmp_uds/1660653193/201903/519/1660653193_6014485969001_6014464498001-th.jpg?pubId=1660653193&videoId=6014464498001
6014035469001,5 Kitchen Tools to Up Your Pastry Game,"
Austin pastry chef Jessica Maher is a wizard with butter and flour. She's also obsessive about quality cooking gear.
",https://timeincsecure-a.akamaihd.net/rtmp_uds/1660653193/201903/2769/1660653193_6014037627001_6014035469001.mp4?pubId=1660653193&videoId=6014035469001,https://timeincsecure-a.akamaihd.net/rtmp_uds/1660653193/201903/2769/1660653193_6014043727001_6014035469001-th.jpg?pubId=1660653193&videoId=6014035469001
6013977286001,"
You Can Buy Cup Noodles From a Vending Machine, Using Instagram as Currency
","
We're living in the golden age of vending machine innovation.
",https://timeincsecure-a.akamaihd.net/rtmp_uds/1660653193/201903/2937/1660653193_6013995058001_6013977286001.mp4?pubId=1660653193&videoId=6013977286001,https://timeincsecure-a.akamaihd.net/rtmp_uds/1660653193/201903/2937/1660653193_6014009436001_6013977286001-th.jpg?pubId=1660653193&videoId=6013977286001
6014004612001,"
Jacques Pepin Will Receive a Lifetime Achievement Award at the Daytime Emmys
","
He will be the first culinary professional to receive the honor.
",https://timeincsecure-a.akamaihd.net/rtmp_uds/1660653193/201903/3625/1660653193_6014004542001_6014004612001.mp4?pubId=1660653193&videoId=6014004612001,https://timeincsecure-a.akamaihd.net/rtmp_uds/1660653193/201903/3625/1660653193_6014011785001_6014004612001-th.jpg?pubId=1660653193&videoId=6014004612001
6012992707001,Communal Table Podcast: Samin Nosrat,"
In the premiere episode of Communal Table, Salt, Fat, Acid Heat author and host Samin Nosrat discusses the challenges of taking care of her mental, physical, and financial wellbeing.
",https://timeincsecure-a.akamaihd.net/rtmp_uds/1660653193/201903/831/1660653193_6013010045001_6012992707001.mp4?pubId=1660653193&videoId=6012992707001,https://timeincsecure-a.akamaihd.net/rtmp_uds/1660653193/201903/831/1660653193_6013034413001_6012992707001-th.jpg?pubId=1660653193&videoId=6012992707001
6013520345001,"
13 Kitchen Items that You Probably Need to Replace ASAP
","
If it's dull, blunt, or smells weird, it's time to replace it.
",https://timeincsecure-a.akamaihd.net/rtmp_uds/1660653193/201903/3567/1660653193_6013517877001_6013520345001.mp4?pubId=1660653193&videoId=6013520345001,https://timeincsecure-a.akamaihd.net/rtmp_uds/1660653193/201903/3567/1660653193_6013585723001_6013520345001-th.jpg?pubId=1660653193&videoId=6013520345001
6013497085001,The 7 Best Reviewed Appliances on Wayfair,"
We've scoured Wayfair to find 7 of the highest rated kitchen appliances on the site. Here's what you should add to your shopping list.
",https://timeincsecure-a.akamaihd.net/rtmp_uds/1660653193/201903/1009/1660653193_6013508210001_6013497085001.mp4?pubId=1660653193&videoId=6013497085001,https://timeincsecure-a.akamaihd.net/rtmp_uds/1660653193/201903/1009/1660653193_6013529199001_6013497085001-th.jpg?pubId=1660653193&videoId=6013497085001
6013195563001,"
11 Brilliant Tools for Cooking Eggs Perfectly Every Time
",You really can make perfect eggs.,https://timeincsecure-a.akamaihd.net/rtmp_uds/1660653193/201903/545/1660653193_6013199357001_6013195563001.mp4?pubId=1660653193&videoId=6013195563001,https://timeincsecure-a.akamaihd.net/rtmp_uds/1660653193/201903/545/1660653193_6013198728001_6013195563001-th.jpg?pubId=1660653193&videoId=6013195563001
6013156998001,"
The 10 Must-Visit Restaurants in Miami, According to Local Chefs
",Here's where Miami chefs eat in Miami.,https://timeincsecure-a.akamaihd.net/rtmp_uds/1660653193/201903/1383/1660653193_6013161158001_6013156998001.mp4?pubId=1660653193&videoId=6013156998001,https://timeincsecure-a.akamaihd.net/rtmp_uds/1660653193/201903/1383/1660653193_6013162224001_6013156998001-th.jpg?pubId=1660653193&videoId=6013156998001
6013068641001,"
The Most Allergy-Friendly Restaurant Chains in America, Ranked
","
So you have food allergies. Do you know the safest place to get dinner?
",https://timeincsecure-a.akamaihd.net/rtmp_uds/1660653193/201903/655/1660653193_6013068946001_6013068641001.mp4?pubId=1660653193&videoId=6013068641001,https://timeincsecure-a.akamaihd.net/rtmp_uds/1660653193/201903/655/1660653193_6013071273001_6013068641001-th.jpg?pubId=1660653193&videoId=6013068641001
6012765884001,"
Ed Sheeran Will Open His Own Bar, Restaurant, and Music Venue in London
","
Does Ed Sheeran have a future in the restaurant biz?
",https://timeincsecure-a.akamaihd.net/rtmp_uds/1660653193/201903/1334/1660653193_6012767735001_6012765884001.mp4?pubId=1660653193&videoId=6012765884001,https://timeincsecure-a.akamaihd.net/rtmp_uds/1660653193/201903/1334/1660653193_6013031506001_6012765884001-th.jpg?pubId=1660653193&videoId=6012765884001
6013019027001,Osso Buco,"
In this episode of Ludo à la Maison, chef Ludo shows how to make the hearty and satisfying dish Osso Buco, served with creamy polenta.
",https://timeincsecure-a.akamaihd.net/rtmp_uds/1660653193/201903/129/1660653193_6013021203001_6013019027001.mp4?pubId=1660653193&videoId=6013019027001,https://timeincsecure-a.akamaihd.net/rtmp_uds/1660653193/201903/129/1660653193_6013013578001_6013019027001-vs.jpg?pubId=1660653193&videoId=6013019027001
6012652155001,"
Walmart Just Launched an Exclusive Line of KitchenAid Tools
","
These quality cooking utensils are already flying off the shelves.
",https://timeincsecure-a.akamaihd.net/rtmp_uds/1660653193/201903/1858/1660653193_6012655147001_6012652155001.mp4?pubId=1660653193&videoId=6012652155001,https://timeincsecure-a.akamaihd.net/rtmp_uds/1660653193/201903/1858/1660653193_6012714707001_6012652155001-vs.jpg?pubId=1660653193&videoId=6012652155001
6012591417001,"
Krispy Kreme Will Give Away Golden Tickets Worth Year of Free Doughnuts on St. Patrick’s Day
","
Krispy Kreme is here to help you celebrate St. Patrick's Day.
",https://timeincsecure-a.akamaihd.net/rtmp_uds/1660653193/201903/2702/1660653193_6012590387001_6012591417001.mp4?pubId=1660653193&videoId=6012591417001,https://timeincsecure-a.akamaihd.net/rtmp_uds/1660653193/201903/2702/1660653193_6012600594001_6012591417001-vs.jpg?pubId=1660653193&videoId=6012591417001
6011736450001,Extra-Crunchy Calamari,"
Want to know the secret to exquisitely tender yet crunchy calamari? Start with a soak in buttermilk. This slightly acidic liquid gently tenderizes the squid. For added crunch, you can’t beat cornmeal; its fine, pebbly grains fry up crispy.
",https://timeincsecure-a.akamaihd.net/rtmp_uds/1660653193/201903/646/1660653193_6011736776001_6011736450001.mp4?pubId=1660653193&videoId=6011736450001,https://timeincsecure-a.akamaihd.net/rtmp_uds/1660653193/201903/646/1660653193_6011731755001_6011736450001-vs.jpg?pubId=1660653193&videoId=6011736450001
6011729851001,Banana Nut Bread,"
Beth Hensperger makes Banana Nut Bread regularly and always has backup loaves in the freezer. The walnuts are toasted just enough to remove their raw edge before being added to the batter.
",https://timeincsecure-a.akamaihd.net/rtmp_uds/1660653193/201903/1186/1660653193_6011731353001_6011729851001.mp4?pubId=1660653193&videoId=6011729851001,https://timeincsecure-a.akamaihd.net/rtmp_uds/1660653193/201903/1186/1660653193_6011731715001_6011729851001-th.jpg?pubId=1660653193&videoId=6011729851001
6011672389001,The 10 Best Supermarkets in the U.S.,Did your favorite make the list?,https://timeincsecure-a.akamaihd.net/rtmp_uds/1660653193/201903/3058/1660653193_6011673430001_6011672389001.mp4?pubId=1660653193&videoId=6011672389001,https://timeincsecure-a.akamaihd.net/rtmp_uds/1660653193/201903/3058/1660653193_6011674199001_6011672389001-vs.jpg?pubId=1660653193&videoId=6011672389001
6011348013001,"
Wendy's Will Give Out Free Bacon Cheeseburgers and Frosties: Here's How to Get One
","
The only thing better than a free cheeseburger is 10 free cheeseburgers.
",https://timeincsecure-a.akamaihd.net/rtmp_uds/1660653193/201903/974/1660653193_6011349614001_6011348013001.mp4?pubId=1660653193&videoId=6011348013001,https://timeincsecure-a.akamaihd.net/rtmp_uds/1660653193/201903/974/1660653193_6011347742001_6011348013001-th.jpg?pubId=1660653193&videoId=6011348013001
6011325763001,5 Chefs on Their Favorite Ways to Cook Kumquats,"
Kumquats are tiny citrus fruits that add a burst of acid to all kinds of dishes.
",https://timeincsecure-a.akamaihd.net/rtmp_uds/1660653193/201903/2562/1660653193_6011327175001_6011325763001.mp4?pubId=1660653193&videoId=6011325763001,https://timeincsecure-a.akamaihd.net/rtmp_uds/1660653193/201903/2562/1660653193_6011326868001_6011325763001-th.jpg?pubId=1660653193&videoId=6011325763001
6011288916001,Strawberry Shortcake for a Crowd,"
This giant biscuit-cake is split and stuffed with a pile of fresh strawberries and fluffy whipped cream, kind of like a rustic version of British Victoria sponge, only much more tender and delightfully messy.
",https://timeincsecure-a.akamaihd.net/rtmp_uds/1660653193/201903/3594/1660653193_6011289825001_6011288916001.mp4?pubId=1660653193&videoId=6011288916001,https://timeincsecure-a.akamaihd.net/rtmp_uds/1660653193/201903/3594/1660653193_6011287082001_6011288916001-th.jpg?pubId=1660653193&videoId=6011288916001
6011239703001,Delicious Pies for Pi Day,This is the best way to celebrate Pi Day.,https://timeincsecure-a.akamaihd.net/rtmp_uds/1660653193/201903/2530/1660653193_6011245971001_6011239703001.mp4?pubId=1660653193&videoId=6011239703001,https://timeincsecure-a.akamaihd.net/rtmp_uds/1660653193/201903/2530/1660653193_6011252130001_6011239703001-vs.jpg?pubId=1660653193&videoId=6011239703001
6011172872001,The Ultimate Oreo and Alcohol Pairing,"
Ray Isle pairs four different alcoholic drinks with the classic Oreo cookie, to determine which of these pairings works the best.
",https://timeincsecure-a.akamaihd.net/rtmp_uds/1660653193/201903/2250/1660653193_6011170737001_6011172872001.mp4?pubId=1660653193&videoId=6011172872001,https://timeincsecure-a.akamaihd.net/rtmp_uds/1660653193/201903/2250/1660653193_6011195793001_6011172872001-th.jpg?pubId=1660653193&videoId=6011172872001
6011168759001,Gluten-Free Spaghetti and Meatballs,"
The secret to these meatballs is using potato flakes as a binder, making them naturally gluten free.
",https://timeincsecure-a.akamaihd.net/rtmp_uds/1660653193/201903/2014/1660653193_6011171830001_6011168759001.mp4?pubId=1660653193&videoId=6011168759001,https://timeincsecure-a.akamaihd.net/rtmp_uds/1660653193/201903/2014/1660653193_6011182910001_6011168759001-th.jpg?pubId=1660653193&videoId=6011168759001
6011172916001,"
Kyle MacLachlan Drinks Some Damn Fine Coffee Cocktails
","
Ray Isle welcomes actor Kyle MacLachlan to play a game of 'Sip Savor Spit' with the cocktails crafted from some damn fine coffee -- the iconic beverage choice of his beloved character, Agent Dale Cooper in the cult-classic TV series, ""Twin Peaks'.
",https://timeincsecure-a.akamaihd.net/rtmp_uds/1660653193/201903/2314/1660653193_6011174710001_6011172916001.mp4?pubId=1660653193&videoId=6011172916001,https://timeincsecure-a.akamaihd.net/rtmp_uds/1660653193/201903/2314/1660653193_6011176450001_6011172916001-th.jpg?pubId=1660653193&videoId=6011172916001
6010888518001,"
Mario Batali Will No Longer Profit From His Restaurants, Per New Report
","
Mario Batali has officially stepped away from his restaurant empire.
",https://timeincsecure-a.akamaihd.net/rtmp_uds/1660653193/201903/2554/1660653193_6010888030001_6010888518001.mp4?pubId=1660653193&videoId=6010888518001,https://timeincsecure-a.akamaihd.net/rtmp_uds/1660653193/201903/2554/1660653193_6010896563001_6010888518001-th.jpg?pubId=1660653193&videoId=6010888518001
6010807745001,"
Every Oreo Flavor We Could Get Our Hands on, Taste-Tested and Ranked
","
We tested 17 different varieties in honor of National Oreo Day.
",https://timeincsecure-a.akamaihd.net/rtmp_uds/1660653193/201903/590/1660653193_6010811716001_6010807745001.mp4?pubId=1660653193&videoId=6010807745001,https://timeincsecure-a.akamaihd.net/rtmp_uds/1660653193/201903/590/1660653193_6010807841001_6010807745001-vs.jpg?pubId=1660653193&videoId=6010807745001
6010771788001,"
These Are the Top 10 U.S. Cities for Food, According to Yelp
",Time to head West.,https://timeincsecure-a.akamaihd.net/rtmp_uds/1660653193/201903/2570/1660653193_6010778772001_6010771788001.mp4?pubId=1660653193&videoId=6010771788001,https://timeincsecure-a.akamaihd.net/rtmp_uds/1660653193/201903/2570/1660653193_6010774713001_6010771788001-th.jpg?pubId=1660653193&videoId=6010771788001
6010757161001,Pabst Blue Ribbon Whiskey Set to Debut This Summer,"
The new product is billed as PBR’s first foray into the spirits business.
",https://timeincsecure-a.akamaihd.net/rtmp_uds/1660653193/201903/1298/1660653193_6010755573001_6010757161001.mp4?pubId=1660653193&videoId=6010757161001,https://timeincsecure-a.akamaihd.net/rtmp_uds/1660653193/201903/1298/1660653193_6010755667001_6010757161001-th.jpg?pubId=1660653193&videoId=6010757161001
6010351597001,How to Clean Your Microplane,"
Okay, but with that steel plate, tiny holes, and razor sharp edges protruding everywhere, how the heck should you clean it?
",https://timeincsecure-a.akamaihd.net/rtmp_uds/1660653193/201903/2030/1660653193_6010356594001_6010351597001.mp4?pubId=1660653193&videoId=6010351597001,https://timeincsecure-a.akamaihd.net/rtmp_uds/1660653193/201903/2030/1660653193_6010353422001_6010351597001-th.jpg?pubId=1660653193&videoId=6010351597001
6010300999001,"
James Beard Awards 2019: Winners, News, and Updates
",Everything to know about this year's awards.,https://timeincsecure-a.akamaihd.net/rtmp_uds/1660653193/201903/1438/1660653193_6010317164001_6010300999001.mp4?pubId=1660653193&videoId=6010300999001,https://timeincsecure-a.akamaihd.net/rtmp_uds/1660653193/201903/1438/1660653193_6010313957001_6010300999001-th.jpg?pubId=1660653193&videoId=6010300999001
6010218698001,Beef Bourguignon,"
In this first episode of cooking series Ludo à la Maison's 8th season, chef Ludo is joined by his good friend and actress Michelle Trachtenberg. Together they are making the famous French dish Beef Bourguignon--a hearty beef and red wine stew.
",https://timeincsecure-a.akamaihd.net/rtmp_uds/1660653193/201903/2822/1660653193_6010236394001_6010218698001.mp4?pubId=1660653193&videoId=6010218698001,https://timeincsecure-a.akamaihd.net/rtmp_uds/1660653193/201903/2822/1660653193_6010239987001_6010218698001-th.jpg?pubId=1660653193&videoId=6010218698001
6009870381001,"
9 Gooey, Cheesy Pastas to Make While Waiting for the Snow to Melt
","
If you can't escape to Florida (the only snowless state), here are nine warming, cheesy pastas to comfort you while you wait for spring.
",https://timeincsecure-a.akamaihd.net/rtmp_uds/1660653193/201903/3982/1660653193_6009866628001_6009870381001.mp4?pubId=1660653193&videoId=6009870381001,https://timeincsecure-a.akamaihd.net/rtmp_uds/1660653193/201903/3982/1660653193_6009861574001_6009870381001-th.jpg?pubId=1660653193&videoId=6009870381001
6009857655001,10 Pasta Dishes That Deserve Their Own Fan Club,"
Is there a more comforting meal than a steaming bowl of pasta? (No. The answer is no.)
",https://timeincsecure-a.akamaihd.net/rtmp_uds/1660653193/201903/2398/1660653193_6009855083001_6009857655001.mp4?pubId=1660653193&videoId=6009857655001,https://timeincsecure-a.akamaihd.net/rtmp_uds/1660653193/201903/2398/1660653193_6009853095001_6009857655001-th.jpg?pubId=1660653193&videoId=6009857655001
6009853990001,"
The Best Beer Bar in Every State, According to CraftBeer.com
","
The annually evolving list has 23 different bars this year compared to last year.
",https://timeincsecure-a.akamaihd.net/rtmp_uds/1660653193/201903/2982/1660653193_6009857270001_6009853990001.mp4?pubId=1660653193&videoId=6009853990001,https://timeincsecure-a.akamaihd.net/rtmp_uds/1660653193/201903/2982/1660653193_6009853060001_6009853990001-th.jpg?pubId=1660653193&videoId=6009853990001
6008996913001,Starbucks' New Cups Might Look Like This,And they'll be recyclable!,https://timeincsecure-a.akamaihd.net/rtmp_uds/1660653193/201903/974/1660653193_6009004348001_6008996913001.mp4?pubId=1660653193&videoId=6008996913001,https://timeincsecure-a.akamaihd.net/rtmp_uds/1660653193/201903/974/1660653193_6009003841001_6008996913001-th.jpg?pubId=1660653193&videoId=6008996913001
6008985988001,Spaghetti with Clams and Braised Greens,"
To give spaghetti with fresh clam sauce more flavor, chef Ashley Christensen purees sweet roasted bell peppers into the spicy, briny broth.
",https://timeincsecure-a.akamaihd.net/rtmp_uds/1660653193/201903/2634/1660653193_6008985113001_6008985988001.mp4?pubId=1660653193&videoId=6008985988001,https://timeincsecure-a.akamaihd.net/rtmp_uds/1660653193/201903/2634/1660653193_6008984989001_6008985988001-th.jpg?pubId=1660653193&videoId=6008985988001
6008988056001,Shrimp & Corn Chowder,"
The grated plantain in this coastal Ecuadoran soup gives the dish a wonderfully light and creamy body.
",https://timeincsecure-a.akamaihd.net/rtmp_uds/1660653193/201903/2614/1660653193_6008989344001_6008988056001.mp4?pubId=1660653193&videoId=6008988056001,https://timeincsecure-a.akamaihd.net/rtmp_uds/1660653193/201903/2614/1660653193_6008984938001_6008988056001-th.jpg?pubId=1660653193&videoId=6008988056001
6008980691001,"
Flat Wine Bottle Maker Introduces 10-Pack Case, Half the Size of a Standard 6-Pack
","
Garçon Wines' 10-pack only takes up the space of four regular wine bottles, and the benefits are staggering.
",https://timeincsecure-a.akamaihd.net/rtmp_uds/1660653193/201903/450/1660653193_6008981362001_6008980691001.mp4?pubId=1660653193&videoId=6008980691001,https://timeincsecure-a.akamaihd.net/rtmp_uds/1660653193/201903/450/1660653193_6008979907001_6008980691001-th.jpg?pubId=1660653193&videoId=6008980691001
6008925961001,31 Recipes to Make in March,"
Spring has sprung, and you know what means: Asparagus! Fava beans! Radishes!
",https://timeincsecure-a.akamaihd.net/rtmp_uds/1660653193/201903/1010/1660653193_6008926305001_6008925961001.mp4?pubId=1660653193&videoId=6008925961001,https://timeincsecure-a.akamaihd.net/rtmp_uds/1660653193/201903/1010/1660653193_6008931305001_6008925961001-vs.jpg?pubId=1660653193&videoId=6008925961001
6008592379001,"
The Michelin Guide Announces 2019 Stars for Germany
","
There are five new two-star restaurants and 37 new one-star restaurants.
",https://timeincsecure-a.akamaihd.net/rtmp_uds/1660653193/201902/1251/1660653193_6008596203001_6008592379001.mp4?pubId=1660653193&videoId=6008592379001,https://timeincsecure-a.akamaihd.net/rtmp_uds/1660653193/201902/1251/1660653193_6008598094001_6008592379001-th.jpg?pubId=1660653193&videoId=6008592379001
6008579043001,"
This New Orlando Bar Is Also a Dog Park, and We Want to Live There
","
Boozehounds, a sprawling off-leash park where dogs roam free while owners drink beer, will open in Orlando.
",https://timeincsecure-a.akamaihd.net/rtmp_uds/1660653193/201902/3037/1660653193_6008580064001_6008579043001.mp4?pubId=1660653193&videoId=6008579043001,https://timeincsecure-a.akamaihd.net/rtmp_uds/1660653193/201902/3037/1660653193_6008581268001_6008579043001-th.jpg?pubId=1660653193&videoId=6008579043001
6008570358001,Tofu Masala,"
This supersimple vegetarian dish from F&W’s Kay Chun is hearty, spicy and delicious with a glass of Chenin Blanc.
",https://timeincsecure-a.akamaihd.net/rtmp_uds/1660653193/201902/2747/1660653193_6008578222001_6008570358001.mp4?pubId=1660653193&videoId=6008570358001,https://timeincsecure-a.akamaihd.net/rtmp_uds/1660653193/201902/2747/1660653193_6008576144001_6008570358001-th.jpg?pubId=1660653193&videoId=6008570358001
6008304056001,Hummus & Salad Pizza,"
In this fun dish, Food & Wine’s Justin Chapple bakes store-bought pizza dough until it’s warm and crisp, then spreads it with hummus and tops it with a bright tangle of lemony greens and herbs.
",https://timeincsecure-a.akamaihd.net/rtmp_uds/1660653193/201902/2581/1660653193_6008313915001_6008304056001.mp4?pubId=1660653193&videoId=6008304056001,https://timeincsecure-a.akamaihd.net/rtmp_uds/1660653193/201902/2581/1660653193_6008576118001_6008304056001-th.jpg?pubId=1660653193&videoId=6008304056001
6008314184001,Knife and Fork Grilled Cheese with Honey,"
This buttery, crisp grilled cheese is filled with luscious Taleggio cheese, then drizzled with honey and sprinkled with flaky salt and coarsely ground black pepper. It’s so simple, but also jaw-droppingly good.
",https://timeincsecure-a.akamaihd.net/rtmp_uds/1660653193/201902/2571/1660653193_6008316160001_6008314184001.mp4?pubId=1660653193&videoId=6008314184001,https://timeincsecure-a.akamaihd.net/rtmp_uds/1660653193/201902/2571/1660653193_6008576053001_6008314184001-vs.jpg?pubId=1660653193&videoId=6008314184001
6008305246001,Crusty Baked Shells & Cauliflower,"
Even sautéed cauliflower feels decadant in this cheesy-crunchy baked pasta from Ina Garten. Be careful not to overcook your pasta, as it will continue to cook in the oven. 
",https://timeincsecure-a.akamaihd.net/rtmp_uds/1660653193/201902/3429/1660653193_6008313927001_6008305246001.mp4?pubId=1660653193&videoId=6008305246001,https://timeincsecure-a.akamaihd.net/rtmp_uds/1660653193/201902/3429/1660653193_6008569649001_6008305246001-vs.jpg?pubId=1660653193&videoId=6008305246001
6008311110001,Smashed Cucumber Salad with Tarragon,"
Gently crushing the cucumbers for this salad releases their aroma and creates nooks and crannies for soaking up the dressing. They still retain plenty of crunch, a great contrast to the rich, creamy butter beans.
",https://timeincsecure-a.akamaihd.net/rtmp_uds/1660653193/201902/1563/1660653193_6008318618001_6008311110001.mp4?pubId=1660653193&videoId=6008311110001,https://timeincsecure-a.akamaihd.net/rtmp_uds/1660653193/201902/1563/1660653193_6008569630001_6008311110001-th.jpg?pubId=1660653193&videoId=6008311110001
6008313473001,Salted Fudge Brownies,"
Kate Krader has been making these fudgy, sweet-salty brownies since she was 10 years old. As a kid she used regular table salt; now she recommends a flaky sea salt like Maldon, because the flavor is less harsh and it melts so nicely into the batter,
",https://timeincsecure-a.akamaihd.net/rtmp_uds/1660653193/201902/2867/1660653193_6008316538001_6008313473001.mp4?pubId=1660653193&videoId=6008313473001,https://timeincsecure-a.akamaihd.net/rtmp_uds/1660653193/201902/2867/1660653193_6008560674001_6008313473001-vs.jpg?pubId=1660653193&videoId=6008313473001
6008315399001,Beaten Biscuit Breakfast Sandwich with Tomato Jam ,"
Chef Marcus Samuelsson makes incredible biscuits, adding a little bit of nutty brown butter to amp up the flavor. He serves them warm, spread with tangy-sweet tomato jam, fried ham and perfectly scrambled eggs with cheddar cheese.
",https://timeincsecure-a.akamaihd.net/rtmp_uds/1660653193/201902/509/1660653193_6008316516001_6008315399001.mp4?pubId=1660653193&videoId=6008315399001,https://timeincsecure-a.akamaihd.net/rtmp_uds/1660653193/201902/509/1660653193_6008560655001_6008315399001-th.jpg?pubId=1660653193&videoId=6008315399001
6008550482001,"
This Man Knows What Everyone in Hollywood Eats—and He Has Stories
","
As a production catering veteran, Tom Morales has learned many things, including that George Clooney loves spicy pasta.
",https://timeincsecure-a.akamaihd.net/rtmp_uds/1660653193/201902/3941/1660653193_6008559369001_6008550482001.mp4?pubId=1660653193&videoId=6008550482001,https://timeincsecure-a.akamaihd.net/rtmp_uds/1660653193/201902/3941/1660653193_6008560613001_6008550482001-vs.jpg?pubId=1660653193&videoId=6008550482001
6008310507001,Butter-Basted Scallops with Sugar Snaps,"
Culinary Director Justin Chapple uses the technique with seared sea scallops, letting the butter caramelize until browned and nutty. Crisp-tender snap peas, spinach, and dandelion greens finish in the same pan for a truly springy, masterful main dish
",https://timeincsecure-a.akamaihd.net/rtmp_uds/1660653193/201902/1987/1660653193_6008316791001_6008310507001.mp4?pubId=1660653193&videoId=6008310507001,https://timeincsecure-a.akamaihd.net/rtmp_uds/1660653193/201902/1987/1660653193_6008413106001_6008310507001-th.jpg?pubId=1660653193&videoId=6008310507001
6008305247001,Red Wine Chocolate Snack Cake,"
Cabernet Sauvignon adds fruity notes that brighten this chocolate cake, which is great for a midday snack or casual dessert.  
",https://timeincsecure-a.akamaihd.net/rtmp_uds/1660653193/201902/2429/1660653193_6008318908001_6008305247001.mp4?pubId=1660653193&videoId=6008305247001,https://timeincsecure-a.akamaihd.net/rtmp_uds/1660653193/201902/2429/1660653193_6008396154001_6008305247001-th.jpg?pubId=1660653193&videoId=6008305247001
6008310508001,Crispy Quinoa Sliders,"
These crispy, light little patties are fantastic as mini vegetarian burgers, but they'd be great served alongside a salad as well.
",https://timeincsecure-a.akamaihd.net/rtmp_uds/1660653193/201902/2987/1660653193_6008313648001_6008310508001.mp4?pubId=1660653193&videoId=6008310508001,https://timeincsecure-a.akamaihd.net/rtmp_uds/1660653193/201902/2987/1660653193_6008386572001_6008310508001-vs.jpg?pubId=1660653193&videoId=6008310508001
6008311109001,Big-Batch Bloody Marys,"
You know what’s easier than a bloody mary bar? Preparing a big-batch mary that’s so good, your guests don’t have to do any DIY work.
",https://timeincsecure-a.akamaihd.net/rtmp_uds/1660653193/201902/563/1660653193_6008318613001_6008311109001.mp4?pubId=1660653193&videoId=6008311109001,https://timeincsecure-a.akamaihd.net/rtmp_uds/1660653193/201902/563/1660653193_6008386527001_6008311109001-th.jpg?pubId=1660653193&videoId=6008311109001
6007990586001,"
The ‘Pizza Pocket Hoodie’ Has a Built-In Pouch to Hold a Warm Slice
","
This functional fashion item is raising funds on Kickstarter.
",https://timeincsecure-a.akamaihd.net/rtmp_uds/1660653193/201902/2693/1660653193_6007990528001_6007990586001.mp4?pubId=1660653193&videoId=6007990586001,https://timeincsecure-a.akamaihd.net/rtmp_uds/1660653193/201902/2693/1660653193_6007992401001_6007990586001-th.jpg?pubId=1660653193&videoId=6007990586001
6007299051001,Big Salad,"
This simple salad recipe is dinner party gold: Assemble it ahead of time in the biggest, prettiest bowl you own, and pass it around the table with tongs, or serve it tableside with a butler’s flair.
",https://timeincsecure-a.akamaihd.net/rtmp_uds/1660653193/201902/1021/1660653193_6007303191001_6007299051001.mp4?pubId=1660653193&videoId=6007299051001,https://timeincsecure-a.akamaihd.net/rtmp_uds/1660653193/201902/1021/1660653193_6007972667001_6007299051001-th.jpg?pubId=1660653193&videoId=6007299051001
6007899694001,"
Guy Fieri Takes His Chicken Tender Restaurant Nationwide
",There are 22 dipping sauces!,https://timeincsecure-a.akamaihd.net/rtmp_uds/1660653193/201902/3461/1660653193_6007903020001_6007899694001.mp4?pubId=1660653193&videoId=6007899694001,https://timeincsecure-a.akamaihd.net/rtmp_uds/1660653193/201902/3461/1660653193_6007902729001_6007899694001-th.jpg?pubId=1660653193&videoId=6007899694001
6007889869001,"
7 Actual Irish Dishes to Make This St. Patrick’s Day
","
From delicious lamb to roasted potatoes, here are seven truly Irish dishes to make to celebrate St. Patrick's Day.
",https://timeincsecure-a.akamaihd.net/rtmp_uds/1660653193/201902/2061/1660653193_6007889818001_6007889869001.mp4?pubId=1660653193&videoId=6007889869001,https://timeincsecure-a.akamaihd.net/rtmp_uds/1660653193/201902/2061/1660653193_6007895413001_6007889869001-vs.jpg?pubId=1660653193&videoId=6007889869001
6007482035001,"
What Do Wines Aged in Concrete, Clay and Glass Taste Like?
","Step aside, oak and steel.",https://timeincsecure-a.akamaihd.net/rtmp_uds/1660653193/201902/2333/1660653193_6007483448001_6007482035001.mp4?pubId=1660653193&videoId=6007482035001,https://timeincsecure-a.akamaihd.net/rtmp_uds/1660653193/201902/2333/1660653193_6007484736001_6007482035001-th.jpg?pubId=1660653193&videoId=6007482035001
5989624045001,Easy Bearnaise Sauce,"
Justin Chapple shares his mad genius tip for making a delicious Bearnaise sauce.
",https://timeincsecure-a.akamaihd.net/rtmp_uds/1660653193/201901/3479/1660653193_5989627804001_5989624045001.mp4?pubId=1660653193&videoId=5989624045001,https://timeincsecure-a.akamaihd.net/rtmp_uds/1660653193/201901/3479/1660653193_5989655020001_5989624045001-th.jpg?pubId=1660653193&videoId=5989624045001
5987246344001,How to Make Steakhouse-Style Ribeye,"
This Mad Genius technique is great for cooking steak indoors.
",https://timeincsecure-a.akamaihd.net/rtmp_uds/1660653193/201901/2737/1660653193_5987257533001_5987246344001.mp4?pubId=1660653193&videoId=5987246344001,https://timeincsecure-a.akamaihd.net/rtmp_uds/1660653193/201901/2737/1660653193_5987506764001_5987246344001-th.jpg?pubId=1660653193&videoId=5987246344001
5981120487001,"
This Simple Chocolate Mousse Is a Decadent (and Foolproof) Mad Genius Dessert
","
Food & Wine Culinary Director Justin Chapple has a few shortcuts to make mousse even easier.
",https://timeincsecure-a.akamaihd.net/rtmp_uds/1660653193/201812/1225/1660653193_5981124177001_5981120487001.mp4?pubId=1660653193&videoId=5981120487001,https://timeincsecure-a.akamaihd.net/rtmp_uds/1660653193/201812/1225/1660653193_5981126596001_5981120487001-th.jpg?pubId=1660653193&videoId=5981120487001
5977742896001,DIY Wheat Thins,"
Learn how to make wheat thins at home by following these simples steps.
",https://timeincsecure-a.akamaihd.net/rtmp_uds/1660653193/201812/3794/1660653193_5977744134001_5977742896001.mp4?pubId=1660653193&videoId=5977742896001,https://timeincsecure-a.akamaihd.net/rtmp_uds/1660653193/201812/3794/1660653193_5977741630001_5977742896001-th.jpg?pubId=1660653193&videoId=5977742896001
5975298001001,Chocolate Pretzel  Crinkle Cookies,"
Chocolate crinkle cookies are often more cloying than satisfying. By substituting the flour with Glutino pretzels, this version of the holiday staple is not only gluten-free but also perfectly salty-sweet with the best-ever chewy center.
",https://timeincsecure-a.akamaihd.net/rtmp_uds/1660653193/201812/1210/1660653193_5975301729001_5975298001001.mp4?pubId=1660653193&videoId=5975298001001,https://timeincsecure-a.akamaihd.net/rtmp_uds/1660653193/201812/1210/1660653193_5975305770001_5975298001001-vs.jpg?pubId=1660653193&videoId=5975298001001
5971802083001,How to Make Puff Pastry in Just 15 Minutes,"
This super easy 'Mad Genius' recipe opens up a whole world of dessert possibilities.
",https://timeincsecure-a.akamaihd.net/rtmp_uds/1660653193/201811/2037/1660653193_5971804081001_5971802083001.mp4?pubId=1660653193&videoId=5971802083001,https://timeincsecure-a.akamaihd.net/rtmp_uds/1660653193/201811/2037/1660653193_5972109677001_5971802083001-vs.jpg?pubId=1660653193&videoId=5971802083001
5970070579001,"
This 'Mad Genius' Creamed Greens Slab Pie Is the Perfect Side Dish
","
Or, serve it as a main course alongside a big green salad.
",https://timeincsecure-a.akamaihd.net/rtmp_uds/1660653193/201811/2315/1660653193_5970084979001_5970070579001.mp4?pubId=1660653193&videoId=5970070579001,https://timeincsecure-a.akamaihd.net/rtmp_uds/1660653193/201811/2315/1660653193_5970078755001_5970070579001-th.jpg?pubId=1660653193&videoId=5970070579001
5856901528001,Harissa-Lamb Skillet Lasagna,"
Nothing has ever been more weeknight-friendly than a lasagna.
",https://timeincsecure-a.akamaihd.net/rtmp_uds/1660653193/201811/2670/1660653193_5856902273001_5856901528001.mp4?pubId=1660653193&videoId=5856901528001,https://timeincsecure-a.akamaihd.net/rtmp_uds/1660653193/201811/2670/1660653193_5856907484001_5856901528001-vs.jpg?pubId=1660653193&videoId=5856901528001
5854947418001,How to Make Crispy Cheese Sticks,"
Culinary Director Justin Chapple shares his genius tip for making crispy cheese sticks out of sandwich bread.
",https://timeincsecure-a.akamaihd.net/rtmp_uds/1660653193/201810/382/1660653193_5854954610001_5854947418001.mp4?pubId=1660653193&videoId=5854947418001,https://timeincsecure-a.akamaihd.net/rtmp_uds/1660653193/201810/382/1660653193_5855294619001_5854947418001-vs.jpg?pubId=1660653193&videoId=5854947418001
5852639993001,How to Make Baked Tamagoyaki,"
Kat Kinsman shows Justin a breakfast recipe that is Mad Genius. This Baked Tamagoyaki is from the Extra Crispy book 'Breakfast: The Most Important Book About the Best Meal of the Day.'
",https://timeincsecure-a.akamaihd.net/rtmp_uds/1660653193/201810/1225/1660653193_5852645283001_5852639993001.mp4?pubId=1660653193&videoId=5852639993001,https://timeincsecure-a.akamaihd.net/rtmp_uds/1660653193/201810/1225/1660653193_5852842057001_5852639993001-th.jpg?pubId=1660653193&videoId=5852639993001
5832097727001,"
The Fastest Way to Make Mashed Potatoes — Peeler and Masher Not Required
",Break out your baking rack.,https://timeincsecure-a.akamaihd.net/rtmp_uds/1660653193/201809/20/1660653193_5832106838001_5832097727001.mp4?pubId=1660653193&videoId=5832097727001,https://timeincsecure-a.akamaihd.net/rtmp_uds/1660653193/201809/20/1660653193_5832171219001_5832097727001-th.jpg?pubId=1660653193&videoId=5832097727001
5828757452001,How to Make a Shot Glass out of Ice,"
Without a doubt, the coolest way to serve a tequila shot.
",https://timeincsecure-a.akamaihd.net/rtmp_uds/1660653193/201808/1036/1660653193_5828774244001_5828757452001.mp4?pubId=1660653193&videoId=5828757452001,https://timeincsecure-a.akamaihd.net/rtmp_uds/1660653193/201808/1036/1660653193_5828774641001_5828757452001-vs.jpg?pubId=1660653193&videoId=5828757452001
5827303596001,How to Pit and Slice an Avocado,Forget all about avocado hand.,https://timeincsecure-a.akamaihd.net/rtmp_uds/1660653193/201808/811/1660653193_5827306825001_5827303596001.mp4?pubId=1660653193&videoId=5827303596001,https://timeincsecure-a.akamaihd.net/rtmp_uds/1660653193/201808/811/1660653193_5827306132001_5827303596001-th.jpg?pubId=1660653193&videoId=5827303596001
5688193304001,"
Puff Pastry Donuts are Easy With This Mad Genius Tip
",Cronuts at home? It’s easier than you think.,https://timeincsecure-a.akamaihd.net/rtmp_uds/1660653193/201712/597/1660653193_5688197017001_5688193304001.mp4?pubId=1660653193&videoId=5688193304001,https://timeincsecure-a.akamaihd.net/rtmp_uds/1660653193/201712/597/1660653193_5688207562001_5688193304001-th.jpg?pubId=1660653193&videoId=5688193304001
5662495061001,"
Bring Home a Taste of Pawnee From This 'Parks and Recreation' Prop Auction
","
Starting today, ‘Parks and Rec’ fans have a chance to bid on their very own Snake Juice bottle with a portion of proceeds supporting L.A. Conservation Corps.
",https://timeincsecure-a.akamaihd.net/rtmp_uds/1660653193/201711/1667/1660653193_5662509190001_5662495061001.mp4?pubId=1660653193&videoId=5662495061001,https://timeincsecure-a.akamaihd.net/rtmp_uds/1660653193/201712/1667/1660653193_5664399987001_5662495061001-vs.jpg?pubId=1660653193&videoId=5662495061001
5662447901001,"
A Sake-Like Drink Made from Tofu Waste Could Be Headed to Store Shelves
","
Scientists in Singapore have turned leftover tofu whey into a 7- to 8-percent ABV beverage described as fruity, floral and a tad sweet.
",https://timeincsecure-a.akamaihd.net/rtmp_uds/1660653193/201711/3645/1660653193_5662470463001_5662447901001.mp4?pubId=1660653193&videoId=5662447901001,https://timeincsecure-a.akamaihd.net/rtmp_uds/1660653193/201712/3645/1660653193_5664398638001_5662447901001-vs.jpg?pubId=1660653193&videoId=5662447901001
5662326515001,"
5 Ways to Instantly Improve Your Home Cooking, According to Michael Symon
",The Chew co-host is begging you to use more salt.,https://timeincsecure-a.akamaihd.net/rtmp_uds/1660653193/201711/3059/1660653193_5662330621001_5662326515001.mp4?pubId=1660653193&videoId=5662326515001,https://timeincsecure-a.akamaihd.net/rtmp_uds/1660653193/201712/3059/1660653193_5664398633001_5662326515001-th.jpg?pubId=1660653193&videoId=5662326515001
5663550942001,"
9 Festive Holiday Cocktails From Disney Parks and Resorts
","
Hot chocolate and candy canes combine with honey whiskey and Cabernet Sauvignon in these magical drink mixes.
",https://timeincsecure-a.akamaihd.net/rtmp_uds/1660653193/201711/1461/1660653193_5663575201001_5663550942001.mp4?pubId=1660653193&videoId=5663550942001,https://timeincsecure-a.akamaihd.net/rtmp_uds/1660653193/201712/1461/1660653193_5664398621001_5663550942001-th.jpg?pubId=1660653193&videoId=5663550942001
5663640076001,"
London to Ban Fast Food and Take Out Restaurants from Opening Near Schools
","
London to Ban Fast Food and Take Out Restaurants from Opening Near Schools
",https://timeincsecure-a.akamaihd.net/rtmp_uds/1660653193/201711/421/1660653193_5663648202001_5663640076001.mp4?pubId=1660653193&videoId=5663640076001,https://timeincsecure-a.akamaihd.net/rtmp_uds/1660653193/201712/421/1660653193_5664398599001_5663640076001-th.jpg?pubId=1660653193&videoId=5663640076001
5653058381001,Squid Ink Pasta,"
The most important step of this dramatic squid ink pasta from F&W BNC Katie Button is toasting the noodles. This step gives the pasta a nutty flavor, but also helps it maintain the perfect al dente texture while cooking undisturbed like a paella.
",https://timeincsecure-a.akamaihd.net/rtmp_uds/1660653193/201711/1115/1660653193_5653056838001_5653058381001.mp4?pubId=1660653193&videoId=5653058381001,https://timeincsecure-a.akamaihd.net/rtmp_uds/1660653193/201711/1115/1660653193_5662265366001_5653058381001-vs.jpg?pubId=1660653193&videoId=5653058381001
5661279426001,"
Prince Harry Likes His Bacon Cooked in a Very Specific Way
","
If you've ever wanted to eat like a royal, here's your chance: a former royal chef's newest cookbook reveals all.
",https://timeincsecure-a.akamaihd.net/rtmp_uds/1660653193/201711/3531/1660653193_5661287184001_5661279426001.mp4?pubId=1660653193&videoId=5661279426001,https://timeincsecure-a.akamaihd.net/rtmp_uds/1660653193/201711/3531/1660653193_5661336379001_5661279426001-th.jpg?pubId=1660653193&videoId=5661279426001
5661294454001,"
Italians Want Pizza to be Given World Heritage Status
","
Pizza purists want to preserve the traditional ingredients and methods of cooking the Neapolitan dish.
",https://timeincsecure-a.akamaihd.net/rtmp_uds/1660653193/201711/2187/1660653193_5661310863001_5661294454001.mp4?pubId=1660653193&videoId=5661294454001,https://timeincsecure-a.akamaihd.net/rtmp_uds/1660653193/201711/2187/1660653193_5661336408001_5661294454001-th.jpg?pubId=1660653193&videoId=5661294454001
5661299388001,"
Some of the Best Sushi in America Can Be Found at... Newark Airport?
","
At Newark Airport Terminal C's newly-opened Tsukiji Fishroom, the sushi is flown in, special delivery, direct from Tokyo's legendary Tsukiji Fish Market.
",https://timeincsecure-a.akamaihd.net/rtmp_uds/1660653193/201711/2245/1660653193_5661304206001_5661299388001.mp4?pubId=1660653193&videoId=5661299388001,https://timeincsecure-a.akamaihd.net/rtmp_uds/1660653193/201711/2245/1660653193_5661337337001_5661299388001-vs.jpg?pubId=1660653193&videoId=5661299388001
5661309113001,"
The Most Popular Foods of 2017, According to YouTube
","
YouTube's top ten trending foods of the year include some surprising desserts.
",https://timeincsecure-a.akamaihd.net/rtmp_uds/1660653193/201711/3523/1660653193_5661328073001_5661309113001.mp4?pubId=1660653193&videoId=5661309113001,https://timeincsecure-a.akamaihd.net/rtmp_uds/1660653193/201711/3523/1660653193_5661337677001_5661309113001-vs.jpg?pubId=1660653193&videoId=5661309113001
5653030266001,Classic Deviled Eggs,"
This traditional deviled eggs recipe makes for a quick party appetizer that's perfect for a daytime brunch or evening cocktail party.
",https://timeincsecure-a.akamaihd.net/rtmp_uds/1660653193/201711/3571/1660653193_5653037246001_5653030266001.mp4?pubId=1660653193&videoId=5653030266001,https://timeincsecure-a.akamaihd.net/rtmp_uds/1660653193/201711/3571/1660653193_5661170564001_5653030266001-vs.jpg?pubId=1660653193&videoId=5653030266001
5660300021001,"
Chewing Gum Sales Are on the Decline, And No One Knows Why
","
Sales of gum in the U.S. have been sinking for nearly a decade.
",https://timeincsecure-a.akamaihd.net/rtmp_uds/1660653193/201711/1180/1660653193_5660310592001_5660300021001.mp4?pubId=1660653193&videoId=5660300021001,https://timeincsecure-a.akamaihd.net/rtmp_uds/1660653193/201711/1180/1660653193_5660312763001_5660300021001-th.jpg?pubId=1660653193&videoId=5660300021001
5660328169001,The New Noma Sold Out Before It Even Opened,"
It took less than a day for Noma's new incarnation to become as impossible to get into as when it was open.
",https://timeincsecure-a.akamaihd.net/rtmp_uds/1660653193/201711/1572/1660653193_5660328276001_5660328169001.mp4?pubId=1660653193&videoId=5660328169001,https://timeincsecure-a.akamaihd.net/rtmp_uds/1660653193/201711/1572/1660653193_5660328565001_5660328169001-th.jpg?pubId=1660653193&videoId=5660328169001
5660292748001,This Is the Worst Food to Eat on a Date,"
A new survey from Zoosk reveals what foods people think you should (and definitely shouldn't) order on your next date.
",https://timeincsecure-a.akamaihd.net/rtmp_uds/1660653193/201711/1284/1660653193_5660301120001_5660292748001.mp4?pubId=1660653193&videoId=5660292748001,https://timeincsecure-a.akamaihd.net/rtmp_uds/1660653193/201711/1284/1660653193_5660301266001_5660292748001-vs.jpg?pubId=1660653193&videoId=5660292748001
5660149121001,"
Nigella Lawson Reveals How She Stays Fit at 57—Hint, It’s Not by Eating Smoothie Bowls
","
“The thing about a smoothie bowl is that it’s a nice picture,” she says. “But I don’t know who eats smoothie bowls…Who?”
",https://timeincsecure-a.akamaihd.net/rtmp_uds/1660653193/201711/2724/1660653193_5660169811001_5660149121001.mp4?pubId=1660653193&videoId=5660149121001,https://timeincsecure-a.akamaihd.net/rtmp_uds/1660653193/201711/2724/1660653193_5660169658001_5660149121001-th.jpg?pubId=1660653193&videoId=5660149121001
5653032300001,Pork-and-Apple Bedfordshire Clangers,Instructional recipe videos from Food & Wine.,https://timeincsecure-a.akamaihd.net/rtmp_uds/1660653193/201711/3587/1660653193_5653047456001_5653032300001.mp4?pubId=1660653193&videoId=5653032300001,https://timeincsecure-a.akamaihd.net/rtmp_uds/1660653193/201711/3587/1660653193_5654009418001_5653032300001-th.jpg?pubId=1660653193&videoId=5653032300001
5653049308001,Rustic Apple Tart,"
This is the flakiest, easiest, best pie crust we've ever tested. Master chef Jacques Pépin has created a virtually fail-safe recipe that is completely hassle-free: You don't even need to chill the dough before you roll it out. F&W's Grace Parisi tops
",https://timeincsecure-a.akamaihd.net/rtmp_uds/1660653193/201711/285/1660653193_5653053176001_5653049308001.mp4?pubId=1660653193&videoId=5653049308001,https://timeincsecure-a.akamaihd.net/rtmp_uds/1660653193/201711/285/1660653193_5653875320001_5653049308001-th.jpg?pubId=1660653193&videoId=5653049308001
5653037672001,"Cranberry, Ginger and Orange Chutney","
This chunky cranberry-orange sauce is super-fresh-tasting because the cranberries are simmered briefly and the orange sections are added near the end of cooking.
",https://timeincsecure-a.akamaihd.net/rtmp_uds/1660653193/201711/2339/1660653193_5653038179001_5653037672001.mp4?pubId=1660653193&videoId=5653037672001,https://timeincsecure-a.akamaihd.net/rtmp_uds/1660653193/201711/2339/1660653193_5653822101001_5653037672001-vs.jpg?pubId=1660653193&videoId=5653037672001
5653050988001,Turkey Bullion Cubes,"
These bouillon cubes are the ultimate convenience: Pop one out anytime you need a quick flavor boost in a soup, sauce or braise. If you don’t have a turkey carcass, use two roast chicken carcasses. If you don’t have parsley stems, use any other herb.
",https://timeincsecure-a.akamaihd.net/rtmp_uds/1660653193/201711/1949/1660653193_5653065392001_5653050988001.mp4?pubId=1660653193&videoId=5653050988001,https://timeincsecure-a.akamaihd.net/rtmp_uds/1660653193/201711/1949/1660653193_5653795727001_5653050988001-th.jpg?pubId=1660653193&videoId=5653050988001
5653072906001,"
5 Things That Separate a Good Cheese Board from a Bad One, According to a Fromagère
","Don't serve your cheese cold, for starters",https://timeincsecure-a.akamaihd.net/rtmp_uds/1660653193/201711/1907/1660653193_5653094878001_5653072906001.mp4?pubId=1660653193&videoId=5653072906001,https://timeincsecure-a.akamaihd.net/rtmp_uds/1660653193/201711/1907/1660653193_5653100333001_5653072906001-vs.jpg?pubId=1660653193&videoId=5653072906001
5653081582001,"
The Cost of Thanksgiving Dinner Has Dropped Again, According to the Farm Bureau
","
After the price of the Farm Bureau’s 10-person feast rose above $50 for the first time in 2015, it’s dropped back down for the second consecutive year.
",https://timeincsecure-a.akamaihd.net/rtmp_uds/1660653193/201711/1459/1660653193_5653108411001_5653081582001.mp4?pubId=1660653193&videoId=5653081582001,https://timeincsecure-a.akamaihd.net/rtmp_uds/1660653193/201711/1459/1660653193_5653104678001_5653081582001-th.jpg?pubId=1660653193&videoId=5653081582001
5652717703001,"
Ayesha Curry’s Newly Opened San Francisco Restaurant Is Booked Through February
","
Consider making reservations at Curry's other spots in Waikiki and Houston.
",https://timeincsecure-a.akamaihd.net/rtmp_uds/1660653193/201711/3787/1660653193_5652716754001_5652717703001.mp4?pubId=1660653193&videoId=5652717703001,https://timeincsecure-a.akamaihd.net/rtmp_uds/1660653193/201711/3787/1660653193_5652722550001_5652717703001-vs.jpg?pubId=1660653193&videoId=5652717703001
5652744501001,"
America's Favorite Fast Food Is Wendy's, According to New Poll
","
Fast-food fans give Wendy's top honors in a National Fast Food Day poll.
",https://timeincsecure-a.akamaihd.net/rtmp_uds/1660653193/201711/3621/1660653193_5652751811001_5652744501001.mp4?pubId=1660653193&videoId=5652744501001,https://timeincsecure-a.akamaihd.net/rtmp_uds/1660653193/201711/3621/1660653193_5652753580001_5652744501001-th.jpg?pubId=1660653193&videoId=5652744501001
5652809357001,Alexa Can Now Track Your Alcohol Consumption,"
Created by Cancer Research UK, the skill is intended to raise awareness about the connection between alcohol and cancer.
",https://timeincsecure-a.akamaihd.net/rtmp_uds/1660653193/201711/2981/1660653193_5652819623001_5652809357001.mp4?pubId=1660653193&videoId=5652809357001,https://timeincsecure-a.akamaihd.net/rtmp_uds/1660653193/201711/2981/1660653193_5652817330001_5652809357001-vs.jpg?pubId=1660653193&videoId=5652809357001
5652951338001,This Delivery App Has the Fastest Delivery Times,"
One of the nation’s top mystery shopper companies analyzed the average delivery time from four major online services.
",https://timeincsecure-a.akamaihd.net/rtmp_uds/1660653193/201711/627/1660653193_5652954683001_5652951338001.mp4?pubId=1660653193&videoId=5652951338001,https://timeincsecure-a.akamaihd.net/rtmp_uds/1660653193/201711/627/1660653193_5652956253001_5652951338001-vs.jpg?pubId=1660653193&videoId=5652951338001
5640662338001,The Ultimate Mashed Potatoes,"
A slow cooker is the key to mashed potato greatness.
",https://timeincsecure-a.akamaihd.net/rtmp_uds/1660653193/201711/1648/1660653193_5640698134001_5640662338001.mp4?pubId=1660653193&videoId=5640662338001,https://timeincsecure-a.akamaihd.net/rtmp_uds/1660653193/201711/1648/1660653193_5644218364001_5640662338001-th.jpg?pubId=1660653193&videoId=5640662338001
5626115226001,Make Your Own Golden Chocolate Ice Cream Bowls,"
Create the ultimate edible ice cream bowl… with balloons!
",https://timeincsecure-a.akamaihd.net/rtmp_uds/1660653193/201710/3788/1660653193_5626115989001_5626115226001.mp4?pubId=1660653193&videoId=5626115226001,https://timeincsecure-a.akamaihd.net/rtmp_uds/1660653193/201710/3788/1660653193_5626115574001_5626115226001-th.jpg?pubId=1660653193&videoId=5626115226001
5626117130001,How to Make a Chocolate Piping Bag,"
Want to bolster your baking with intricate chocolate designs? All you need is parchment paper.
",https://timeincsecure-a.akamaihd.net/rtmp_uds/1660653193/201710/1364/1660653193_5626117449001_5626117130001.mp4?pubId=1660653193&videoId=5626117130001,https://timeincsecure-a.akamaihd.net/rtmp_uds/1660653193/201710/1364/1660653193_5626115600001_5626117130001-th.jpg?pubId=1660653193&videoId=5626117130001
5617856467001,Food & Wine Kitchen Hacks: Poached Eggs,"
Justin Chapple of Food & Wine demonstrates an easy way poach eggs.
",https://timeincsecure-a.akamaihd.net/rtmp_uds/1660653193/201710/3293/1660653193_5617879278001_5617856467001.mp4?pubId=1660653193&videoId=5617856467001,https://timeincsecure-a.akamaihd.net/rtmp_uds/1660653193/201710/3293/1660653193_5617899642001_5617856467001-vs.jpg?pubId=1660653193&videoId=5617856467001
5345448820001,The Best New Way to Make Meatloaf,"
""Tons of crispy edges and the perfect amount of glaze.""
",https://timeincsecure-a.akamaihd.net/rtmp_uds/1660653193/201703/1253/1660653193_5345468776001_5345448820001.mp4?pubId=1660653193&videoId=5345448820001,https://timeincsecure-a.akamaihd.net/rtmp_uds/1660653193/201710/1253/1660653193_5612809555001_5345448820001-th.jpg?pubId=1660653193&videoId=5345448820001
5485983632001,"
Taste of the Classic: Inside the Grand Tasting Pavilion With Gail Simmons
","
A hallmark of the Food & Wine Classic in Aspen is the epic taste-testing that happens throughout the day at the Grand Tasting Pavilion. Take a sneak peek inside with Gail Simmons as she hangs out with Best New Chefs Jay Blackinton of Hogstone’s Wood
",https://timeincsecure-a.akamaihd.net/rtmp_uds/1660653193/201706/988/1660653193_5485995060001_5485983632001.mp4?pubId=1660653193&videoId=5485983632001,https://timeincsecure-a.akamaihd.net/rtmp_uds/1660653193/201706/988/1660653193_5486001455001_5485983632001-vs.jpg?pubId=1660653193&videoId=5485983632001
5485974218001,"
Taste of the Classic: The Best Moments at the 2017 Food & Wine Classic in Aspen
","
Gail Simmons takes a look back at her favorite moments from this year’s Food & Wine Classic in Aspen, including attending the splashiest parties, hanging out with the world’s best chefs, and tasting some of the most legendary foods and wines on
",https://timeincsecure-a.akamaihd.net/rtmp_uds/1660653193/201706/204/1660653193_5485994981001_5485974218001.mp4?pubId=1660653193&videoId=5485974218001,https://timeincsecure-a.akamaihd.net/rtmp_uds/1660653193/201706/204/1660653193_5486001525001_5485974218001-vs.jpg?pubId=1660653193&videoId=5485974218001
5485974216001,"
Taste of the Classic: Welcome to the 35th Food & Wine Classic in Aspen
","
Take a gondola ride to the top of Aspen Mountain with Gail Simmons and Lexus Culinary Master Stephanie Izard to experience all the glamour, flavors and fun on day one of this year’s Food & Wine Classic in Aspen.
",https://timeincsecure-a.akamaihd.net/rtmp_uds/1660653193/201706/2204/1660653193_5485995701001_5485974216001.mp4?pubId=1660653193&videoId=5485974216001,https://timeincsecure-a.akamaihd.net/rtmp_uds/1660653193/201706/2204/1660653193_5486001533001_5485974216001-vs.jpg?pubId=1660653193&videoId=5485974216001
1783866038001,"
Mario Batali's Favorite Unsung Regions in Italy: Puglia & Bologna
","
Get Mario Batali's insider tips on the regions of Puglia and Bologna in Italy.
",http://brightcove.vo.llnwd.net/e1/uds/pd/1660653193/1660653193_1783898710001_Batali-Puglia---Bologna.mp4,http://brightcove.vo.llnwd.net/e1/pd/1660653193/1660653193_1786844271001_ari-origin05-arc-152-1345045620339.jpg?pubId=1660653193
1783867336001,"
Mario Batali on How to Throw an Italian Dinner Party
","
Here, Mario Batali's best tips on how to throw an authentic Italian dinner party.
",http://brightcove.vo.llnwd.net/e1/uds/pd/1660653193/1660653193_1783900258001_Batali-Italian-Dinner-Party.mp4,http://brightcove.vo.llnwd.net/e1/pd/1660653193/1660653193_1783900264001_vs-502983cdafaab0e439fc6bda-590065948001.jpg?pubId=1660653193
1762461013001,Mario Batali Reveals 3 Crimes Against Pasta,"
Star chef Mario Batali on how you should not treat your pasta, from over-cooking to soaking in sauce.
",http://brightcove.vo.llnwd.net/e1/uds/pd/1660653193/1660653193_1762463162001_Batali-3-Crimes.mp4,http://brightcove.vo.llnwd.net/e1/pd/1660653193/1660653193_1762508786001_ari-origin05-arc-146-1343683846012.jpg?pubId=1660653193
