guid,title,description,media:content,media:thumbnail
1032469-1,Prancer | Rick Carrera | The Ordinary Parody,,https://s3-us-west-1.amazonaws.com/jukinmedia-footage/syndication/1032469-syndication-footage-1554333817063.mp4?wm=1_HAA574vs-ucast_paa&AWSAccessKeyId=AKIAINR7NSBYX4Q5LHXA&Expires=1554631481&Signature=%2FL0tbRX1qrXXE9ych%2FKFfhcroHU%3D,https://thumbnails.jukinmedia.com/thumbnail-1554335527827.jpg
1031899-1,Dumbo In Real Life,,https://s3-us-west-1.amazonaws.com/jukinmedia-footage/syndication/1031899-syndication-footage-1554159381572.mp4?wm=1_HAA574vs-ucast_paa&AWSAccessKeyId=AKIAINR7NSBYX4Q5LHXA&Expires=1554631481&Signature=0gyb0BuLdJwCs7B0h4h%2BlCvLxiM%3D,https://thumbnails.jukinmedia.com/thumbnail-1554161229046.jpg
1031490-1,Women's Martial Arts,,https://s3-us-west-1.amazonaws.com/jukinmedia-footage/syndication/1031490-syndication-footage-1553883905247.mp4?wm=1_HAA574vs-ucast_paa&AWSAccessKeyId=AKIAINR7NSBYX4Q5LHXA&Expires=1554631481&Signature=ilrDlGn6LT8DXQ8u6BdG4smu5ng%3D,https://thumbnails.jukinmedia.com/thumbnail-1553884147669.jpg
1031489-1,Downhill Skateboard Surprise,,https://s3-us-west-1.amazonaws.com/jukinmedia-footage/syndication/1031489-syndication-footage-1553883108612.mp4?wm=1_HAA574vs-ucast_paa&AWSAccessKeyId=AKIAINR7NSBYX4Q5LHXA&Expires=1554631481&Signature=ODBqXgB%2BvOz9%2FtdRRCdfYb5PIc8%3D,https://thumbnails.jukinmedia.com/thumbnail-1553893327663.jpg
1031330-1,Baseball | People Are Awesome Vs. FailArmy,,https://s3-us-west-1.amazonaws.com/jukinmedia-footage/syndication/1031330-syndication-footage-1553799526074.mp4?wm=1_HAA574vs-ucast_paa&AWSAccessKeyId=AKIAINR7NSBYX4Q5LHXA&Expires=1554631481&Signature=Ja2XjGb1wfuJbWVRuugK5NIP6jk%3D,https://thumbnails.jukinmedia.com/thumbnail-1553884208107.jpg
1030632-1,Best of People Are Awesome | Ep. 20,,https://s3-us-west-1.amazonaws.com/jukinmedia-footage/syndication/1030632-syndication-footage-1553549268178.mp4?wm=1_HAA574vs-ucast_paa&AWSAccessKeyId=AKIAINR7NSBYX4Q5LHXA&Expires=1554631482&Signature=VH4i%2BHtpYh93AxVT8S7IcM%2B1XUo%3D,https://thumbnails.jukinmedia.com/thumbnail-1553549431089.jpg
1029878-1,March Madness,,https://s3-us-west-1.amazonaws.com/jukinmedia-footage/syndication/1029878-syndication-footage-1553107587983.mp4?wm=1_HAA574vs-ucast_paa&AWSAccessKeyId=AKIAINR7NSBYX4Q5LHXA&Expires=1554631482&Signature=SE6XhxbXNcJPM63igRMLSMAv1YU%3D,https://thumbnails.jukinmedia.com/thumbnail-1553119184671.jpg
1029649-1,The Best of People Are Awesome,,https://s3-us-west-1.amazonaws.com/jukinmedia-footage/syndication/1029649-syndication-footage-1553034770948.mp4?wm=1_HAA574vs-ucast_paa&AWSAccessKeyId=AKIAINR7NSBYX4Q5LHXA&Expires=1554631482&Signature=m2c6w5ebcdsRoXO7PJf0qenlc5Q%3D,https://thumbnails.jukinmedia.com/thumbnail-1553035094160.jpg
1029645-1,Never Give Up,,https://s3-us-west-1.amazonaws.com/jukinmedia-footage/syndication/1029645-syndication-footage-1553033955440.mp4?wm=1_HAA574vs-ucast_paa&AWSAccessKeyId=AKIAINR7NSBYX4Q5LHXA&Expires=1554631482&Signature=KA1TM2oUKyoL%2BP1Txl%2BLk%2BN3E68%3D,https://thumbnails.jukinmedia.com/thumbnail-1553034029563.jpg
1029637-1,Best of The Week | 2019 Ep. 9 | People Are Awesome,,https://s3-us-west-1.amazonaws.com/jukinmedia-footage/syndication/1029637-syndication-footage-1553032660983.mp4?wm=1_HAA574vs-ucast_paa&AWSAccessKeyId=AKIAINR7NSBYX4Q5LHXA&Expires=1554631482&Signature=ZvLNGD7uDU9lQUf4p%2BGeFhOlmGA%3D,https://thumbnails.jukinmedia.com/thumbnail-1553033069387.jpg
1029401-1,Road Painting,,https://s3-us-west-1.amazonaws.com/jukinmedia-footage/syndication/1029401-syndication-footage-1552960990728.mp4?wm=1_HAA574vs-ucast_paa&AWSAccessKeyId=AKIAINR7NSBYX4Q5LHXA&Expires=1554631482&Signature=P9zbTDgCReWqrwPpM3Vv8oxsvBY%3D,https://thumbnails.jukinmedia.com/thumbnail-1552961121326.jpg
1028505-1,Extreme Pool Trick Shots,,https://s3-us-west-1.amazonaws.com/jukinmedia-footage/syndication/1028505-syndication-footage-1552503232894.mp4?wm=1_HAA574vs-ucast_paa&AWSAccessKeyId=AKIAINR7NSBYX4Q5LHXA&Expires=1554631482&Signature=hfGYwAkGmHClwJJZl%2FP1jWJwjmI%3D,https://thumbnails.jukinmedia.com/thumbnail-1552503367580.jpg
1028229-1,Best of People Are Awesome,,https://s3-us-west-1.amazonaws.com/jukinmedia-footage/syndication/1028229-syndication-footage-1552425929682.mp4?wm=1_HAA574vs-ucast_paa&AWSAccessKeyId=AKIAINR7NSBYX4Q5LHXA&Expires=1554631482&Signature=JRBrYnqdAFBpTgo7SMaY%2BkPnN7A%3D,https://thumbnails.jukinmedia.com/thumbnail-1552502992200.jpg
1028035-1,Moves Like Mario,,https://s3-us-west-1.amazonaws.com/jukinmedia-footage/syndication/1028035-syndication-footage-1552508804477.mp4?wm=1_HAA574vs-ucast_paa&AWSAccessKeyId=AKIAINR7NSBYX4Q5LHXA&Expires=1554631482&Signature=rNKue90ylAxCb%2BbQi2e5dj9vLb0%3D,https://thumbnails.jukinmedia.com/thumbnail-1552509502224.jpg
1028033-1,Extreme Sports | Men vs. Women,,https://s3-us-west-1.amazonaws.com/jukinmedia-footage/syndication/1028033-syndication-footage-1552353860407.mp4?wm=1_HAA574vs-ucast_paa&AWSAccessKeyId=AKIAINR7NSBYX4Q5LHXA&Expires=1554631482&Signature=wa4%2FxJ43paP27BX0cpUUzaS20v4%3D,https://thumbnails.jukinmedia.com/thumbnail-1552354100641.jpg
1027641-1,"
International Women's Day 2019 | People Are Awesome
",,https://s3-us-west-1.amazonaws.com/jukinmedia-footage/syndication/1027641-syndication-footage-1552084120809.mp4?wm=1_HAA574vs-ucast_paa&AWSAccessKeyId=AKIAINR7NSBYX4Q5LHXA&Expires=1554631482&Signature=MNMdJ9Q1fCIENB8CCZ7mT1rv3ac%3D,https://thumbnails.jukinmedia.com/thumbnail-1552084342533.jpg
1027355-1,Game of Thrones in Real Life,,https://s3-us-west-1.amazonaws.com/jukinmedia-footage/syndication/1027355-syndication-footage-1551916663877.mp4?wm=1_HAA574vs-ucast_paa&AWSAccessKeyId=AKIAINR7NSBYX4Q5LHXA&Expires=1554631482&Signature=HlwKgZGlSmTzJPPmAxpP8v0KWqo%3D,https://thumbnails.jukinmedia.com/thumbnail-1551916982269.jpg
1026977-1,Best of People Are Awesome,,https://s3-us-west-1.amazonaws.com/jukinmedia-footage/syndication/1026977-syndication-footage-1551814225825.mp4?wm=1_HAA574vs-ucast_paa&AWSAccessKeyId=AKIAINR7NSBYX4Q5LHXA&Expires=1554631482&Signature=HduRCFzdTFpWx5Qy2wBe6Hkp%2BLk%3D,https://thumbnails.jukinmedia.com/thumbnail-1551814427594.jpg
1026901-1,Best of The Week | 2019 Ep. 8 | People Are Awesome,,https://s3-us-west-1.amazonaws.com/jukinmedia-footage/syndication/1026901-syndication-footage-1551753698174.mp4?wm=1_HAA574vs-ucast_paa&AWSAccessKeyId=AKIAINR7NSBYX4Q5LHXA&Expires=1554631483&Signature=ytyUf9vb80FNZJckumNdvnjoZ24%3D,https://thumbnails.jukinmedia.com/thumbnail-1551754141539.jpg
1026034-1,Best of People Are Awesome,,https://s3-us-west-1.amazonaws.com/jukinmedia-footage/syndication/1026034-syndication-footage-1551392456923.mp4?wm=1_HAA574vs-ucast_paa&AWSAccessKeyId=AKIAINR7NSBYX4Q5LHXA&Expires=1554631483&Signature=OOIB8%2FCg4JHFcH7RH%2BMu8MJc%2F6o%3D,https://thumbnails.jukinmedia.com/thumbnail-1551392911946.jpg
1025594-1,Circus Arts | People Are Awesome Vs. FailArmy,,https://s3-us-west-1.amazonaws.com/jukinmedia-footage/syndication/1025594-syndication-footage-1550879252213.mp4?wm=1_HAA574vs-ucast_paa&AWSAccessKeyId=AKIAINR7NSBYX4Q5LHXA&Expires=1554631483&Signature=Ecw8w6ohKX98yy4daa9IhwMx1cE%3D,https://thumbnails.jukinmedia.com/thumbnail-1550882219810.jpg
1025175-1,International Love Your Pet Day,,https://s3-us-west-1.amazonaws.com/jukinmedia-footage/syndication/1025175-syndication-footage-1550690521282.mp4?wm=1_HAA574vs-ucast_paa&AWSAccessKeyId=AKIAINR7NSBYX4Q5LHXA&Expires=1554631483&Signature=Zed1whoEkTu4%2BrUwy3oiTSphxnA%3D,https://thumbnails.jukinmedia.com/thumbnail-1550691320684.jpg
1024772-1,Best of People Are Awesome,,https://s3-us-west-1.amazonaws.com/jukinmedia-footage/syndication/1024772-syndication-footage-1550536925067.mp4?wm=1_HAA574vs-ucast_paa&AWSAccessKeyId=AKIAINR7NSBYX4Q5LHXA&Expires=1554631483&Signature=zKCTzzYjJZTFJii5yYJt88wYk%2F8%3D,https://thumbnails.jukinmedia.com/thumbnail-1550537301641.jpg
1024771-1,UV Resin Earrings,,https://s3-us-west-1.amazonaws.com/jukinmedia-footage/syndication/1024771-syndication-footage-1550619641189.mp4?wm=1_HAA574vs-ucast_paa&AWSAccessKeyId=AKIAINR7NSBYX4Q5LHXA&Expires=1554631483&Signature=YXMWjmLNdeDlMmiw%2FhN9OAO2c%2Fs%3D,https://thumbnails.jukinmedia.com/thumbnail-1550784425842.jpg
1024770-1,Best of the Week | 2019 Ep. 6 | People Are Awesome,,https://s3-us-west-1.amazonaws.com/jukinmedia-footage/syndication/1024770-syndication-footage-1550619929254.mp4?wm=1_HAA574vs-ucast_paa&AWSAccessKeyId=AKIAINR7NSBYX4Q5LHXA&Expires=1554631483&Signature=sz2VGzqwRr6g1h2YJe%2BwArTleSY%3D,https://thumbnails.jukinmedia.com/thumbnail-1550620520089.jpg
1024322-1,Fit Couple Flops,,https://s3-us-west-1.amazonaws.com/jukinmedia-footage/syndication/1024322-syndication-footage-1550183403747.mp4?wm=1_HAA574vs-ucast_paa&AWSAccessKeyId=AKIAINR7NSBYX4Q5LHXA&Expires=1554631483&Signature=J972F6m2DJNR3dGgu8pweSRVuxI%3D,https://thumbnails.jukinmedia.com/thumbnail-1550185296843.jpg
1024321-1,Valentine's Couple Goals!,,https://s3-us-west-1.amazonaws.com/jukinmedia-footage/syndication/1024321-syndication-footage-1550183380830.mp4?wm=1_HAA574vs-ucast_paa&AWSAccessKeyId=AKIAINR7NSBYX4Q5LHXA&Expires=1554631483&Signature=Y0oPs3yQZ2ydZZr4sfwBDknJJwg%3D,https://thumbnails.jukinmedia.com/thumbnail-1550185476671.jpg
1023190-1,People Are Awesome Vs. FailArmy | 2019 Ep. 1,,https://s3-us-west-1.amazonaws.com/jukinmedia-footage/syndication/1023190-syndication-footage-1549938711268.mp4?wm=1_HAA574vs-ucast_paa&AWSAccessKeyId=AKIAINR7NSBYX4Q5LHXA&Expires=1554631483&Signature=NeRNokz79dyHA3egdRDOG%2FtMxJo%3D,https://thumbnails.jukinmedia.com/thumbnail-1549944923771.jpg
1023188-1,Best of the Week | 2019 Ep. 5 | People Are Awesome,,https://s3-us-west-1.amazonaws.com/jukinmedia-footage/syndication/1023188-syndication-footage-1549938657698.mp4?wm=1_HAA574vs-ucast_paa&AWSAccessKeyId=AKIAINR7NSBYX4Q5LHXA&Expires=1554631483&Signature=C5bq5L2Tfys2iBVrsTFd%2FsHQL8Y%3D,https://thumbnails.jukinmedia.com/thumbnail-1549945209731.jpg
1022832-1,Incredible Wingsuit Flights,,https://s3-us-west-1.amazonaws.com/jukinmedia-footage/syndication/1022832-syndication-footage-1549913597571.mp4?wm=1_HAA574vs-ucast_paa&AWSAccessKeyId=AKIAINR7NSBYX4Q5LHXA&Expires=1554631483&Signature=u4rB4%2BvXldZlSZaygUjN7xCvKes%3D,https://thumbnails.jukinmedia.com/thumbnail-1549913777143.jpg
1023029-1,Best of People Are Awesome,,https://s3-us-west-1.amazonaws.com/jukinmedia-footage/syndication/1023029-syndication-footage-1549488592847.mp4?wm=1_HAA574vs-ucast_paa&AWSAccessKeyId=AKIAINR7NSBYX4Q5LHXA&Expires=1554631483&Signature=YsGUa7k28sTWr7jjSVD5mt0CrOg%3D,https://thumbnails.jukinmedia.com/thumbnail-1549493678797.jpg
1022681-1,Best of People Are Awesome,,https://s3-us-west-1.amazonaws.com/jukinmedia-footage/syndication/1022681-syndication-footage-1549326638701.mp4?wm=1_HAA574vs-ucast_paa&AWSAccessKeyId=AKIAINR7NSBYX4Q5LHXA&Expires=1554631484&Signature=Zgtj%2FWZTd6XhXRVFBisFQamOaQs%3D,https://thumbnails.jukinmedia.com/thumbnail-1549326709820.jpg
1022643-1,Best of the Week | 2019 Ep.4 | People Are Awesome,,https://s3-us-west-1.amazonaws.com/jukinmedia-footage/syndication/1022643-syndication-footage-1549320123312.mp4?wm=1_HAA574vs-ucast_paa&AWSAccessKeyId=AKIAINR7NSBYX4Q5LHXA&Expires=1554631484&Signature=VQPsKKotZ9UnlP2%2FHmHynm%2Fb%2FcU%3D,https://thumbnails.jukinmedia.com/thumbnail-1549323215009.jpg
1022198-1,Groundhog Day,,https://s3-us-west-1.amazonaws.com/jukinmedia-footage/syndication/1022198-syndication-footage-1549050836875.mp4?wm=1_HAA574vs-ucast_paa&AWSAccessKeyId=AKIAINR7NSBYX4Q5LHXA&Expires=1554631484&Signature=KTGZV6HkoprZ7tCDcIASMHtmW9s%3D,https://thumbnails.jukinmedia.com/thumbnail-1549050952948.jpg
1021648-1,Martial Arts Masterpieces By Kensi Emory,,https://s3-us-west-1.amazonaws.com/jukinmedia-footage/syndication/1021648-syndication-footage-1548958440226.mp4?wm=1_HAA574vs-ucast_paa&AWSAccessKeyId=AKIAINR7NSBYX4Q5LHXA&Expires=1554631484&Signature=tGtk0q42OXV957Ejx6w4RZlQxiU%3D,https://thumbnails.jukinmedia.com/thumbnail-1548959932922.jpg
1021967-1,Slalom Skating,,https://s3-us-west-1.amazonaws.com/jukinmedia-footage/syndication/1021967-syndication-footage-1548873007896.mp4?wm=1_HAA574vs-ucast_paa&AWSAccessKeyId=AKIAINR7NSBYX4Q5LHXA&Expires=1554631484&Signature=HRE54%2BnaCyPzqdELaJLgvwTHycs%3D,https://thumbnails.jukinmedia.com/thumbnail-1548873132074.jpg
1021800-1,Incredible Talents | Best of People Are Awesome,,https://s3-us-west-1.amazonaws.com/jukinmedia-footage/syndication/1021800-syndication-footage-1548791786363.mp4?wm=1_HAA574vs-ucast_paa&AWSAccessKeyId=AKIAINR7NSBYX4Q5LHXA&Expires=1554631484&Signature=B6gW%2FDjHKjhaN7R8kljJbRLKGxs%3D,https://thumbnails.jukinmedia.com/thumbnail-1548798011239.jpg
1021653-1,Best of the Week | 2019 Ep. 3,,https://s3-us-west-1.amazonaws.com/jukinmedia-footage/syndication/1021653-syndication-footage-1548715895976.mp4?wm=1_HAA574vs-ucast_paa&AWSAccessKeyId=AKIAINR7NSBYX4Q5LHXA&Expires=1554631484&Signature=9AYQcZ4i%2BUafEpzubj1zBHDFRJA%3D,https://thumbnails.jukinmedia.com/thumbnail-1548716224100.jpg
1021650-1,Wildlife Wood Sculpture,,https://s3-us-west-1.amazonaws.com/jukinmedia-footage/syndication/1021650-syndication-footage-1548719004703.mp4?wm=1_HAA574vs-ucast_paa&AWSAccessKeyId=AKIAINR7NSBYX4Q5LHXA&Expires=1554631484&Signature=Jkvjl3nkjbs2JvGb3RX7ZPFHY48%3D,https://thumbnails.jukinmedia.com/thumbnail-1548719869699.jpg
1021649-1,Balanced Weightlifting,,https://s3-us-west-1.amazonaws.com/jukinmedia-footage/syndication/1021649-syndication-footage-1548717913465.mp4?wm=1_HAA574vs-ucast_paa&AWSAccessKeyId=AKIAINR7NSBYX4Q5LHXA&Expires=1554631484&Signature=Et7r37fEqgTKKnw78N5Cg3rxKFA%3D,https://thumbnails.jukinmedia.com/thumbnail-1548718579254.jpg
1021625-1,Next-Level Ice Hockey,,https://s3-us-west-1.amazonaws.com/jukinmedia-footage/syndication/1021625-syndication-footage-1548705778296.mp4?wm=1_HAA574vs-ucast_paa&AWSAccessKeyId=AKIAINR7NSBYX4Q5LHXA&Expires=1554631484&Signature=RmZVDy2GwhMxG%2BKYF1Mag33PrD0%3D,https://thumbnails.jukinmedia.com/thumbnail-1548705994057.jpg
1020985-1,Best of People Are Awesome,,https://s3-us-west-1.amazonaws.com/jukinmedia-footage/syndication/1020985-syndication-footage-1548183286864.mp4?wm=1_HAA574vs-ucast_paa&AWSAccessKeyId=AKIAINR7NSBYX4Q5LHXA&Expires=1554631484&Signature=xTaApH%2BOClKPHfg%2BuUub7NHGW%2Fo%3D,https://thumbnails.jukinmedia.com/thumbnail-1548184031159.jpg
1020920-1,People Are Awesome Vs. FailArmy | Pole Fitness,,https://s3-us-west-1.amazonaws.com/jukinmedia-footage/syndication/1020920-syndication-footage-1548118619050.mp4?wm=1_HAA574vs-ucast_paa&AWSAccessKeyId=AKIAINR7NSBYX4Q5LHXA&Expires=1554631484&Signature=8pp8FwNU6AlCRGo8Gm%2Bg9slQ6Bs%3D,https://thumbnails.jukinmedia.com/thumbnail-1548119124738.jpg
1020919-1,Best of the Week!,,https://s3-us-west-1.amazonaws.com/jukinmedia-footage/syndication/1020919-syndication-footage-1548117499845.mp4?wm=1_HAA574vs-ucast_paa&AWSAccessKeyId=AKIAINR7NSBYX4Q5LHXA&Expires=1554631484&Signature=On2BnH1RoDIkY6meOILoqxWPjVw%3D,https://thumbnails.jukinmedia.com/thumbnail-1548117894747.jpg
1020594-1,Fast Movers,,https://s3-us-west-1.amazonaws.com/jukinmedia-footage/syndication/1020594-syndication-footage-1547851982793.mp4?wm=1_HAA574vs-ucast_paa&AWSAccessKeyId=AKIAINR7NSBYX4Q5LHXA&Expires=1554631485&Signature=nWBVxD0%2BPzNyhfYEM8ICbDjNGxk%3D,https://thumbnails.jukinmedia.com/thumbnail-1547853096157.jpg
1020424-1,Extreme Bungee and Rope Swings,,https://s3-us-west-1.amazonaws.com/jukinmedia-footage/syndication/1020424-syndication-footage-1547772649510.mp4?wm=1_HAA574vs-ucast_paa&AWSAccessKeyId=AKIAINR7NSBYX4Q5LHXA&Expires=1554631485&Signature=Ln7SyutRGXPHuvEJJ0suufCbV%2FE%3D,https://thumbnails.jukinmedia.com/thumbnail-1547772927428.jpg
1020040-1,Best of People Are Awesome,,https://s3-us-west-1.amazonaws.com/jukinmedia-footage/syndication/1020040-syndication-footage-1547580127981.mp4?wm=1_HAA574vs-ucast_paa&AWSAccessKeyId=AKIAINR7NSBYX4Q5LHXA&Expires=1554631485&Signature=SJupcmcnTY0YZ3epsEEIFf4LO8c%3D,https://thumbnails.jukinmedia.com/thumbnail-1547588793756.jpg
1019296-1,People Are Awesome vs. FailArmy | Trampolines,,https://s3-us-west-1.amazonaws.com/jukinmedia-footage/syndication/1019296-syndication-footage-1547502279498.mp4?wm=1_HAA574vs-ucast_paa&AWSAccessKeyId=AKIAINR7NSBYX4Q5LHXA&Expires=1554631485&Signature=VZ2aFeB3DtguxNvu5bDQ%2FOLb0a4%3D,https://thumbnails.jukinmedia.com/thumbnail-1547587578950.jpg
1019310-1,Hyperrealistic Drawings,,https://s3-us-west-1.amazonaws.com/jukinmedia-footage/syndication/1019310-syndication-footage-1547241854304.mov?wm=1_HAA574vs-ucast_paa&AWSAccessKeyId=AKIAINR7NSBYX4Q5LHXA&Expires=1554631485&Signature=nwj3TaWVOJul3r1UTGxtvxOoPPU%3D,https://thumbnails.jukinmedia.com/thumbnail-1548351245088.jpg
1019300-1,Incredible Pancake Designs,,https://s3-us-west-1.amazonaws.com/jukinmedia-footage/syndication/1019300-syndication-footage-1547241381569.mp4?wm=1_HAA574vs-ucast_paa&AWSAccessKeyId=AKIAINR7NSBYX4Q5LHXA&Expires=1554631485&Signature=fpzvkwfx9xBcrRFZaD4o%2FwZco%2BY%3D,https://thumbnails.jukinmedia.com/thumbnail-1547241577964.jpg
