guid,title,description,media:content,media:thumbnail
6019522990001,"
Pippi Longstocking’s House for Sale in Florida’s Beautiful Fernandina Beach
","This one’s for you, 90s kids!",https://timeincsecure-a.akamaihd.net/rtmp_uds/474428695/201903/2680/474428695_6019530290001_6019522990001.mp4?pubId=474428695&videoId=6019522990001,https://timeincsecure-a.akamaihd.net/rtmp_uds/474428695/201903/2680/474428695_6019964953001_6019522990001-th.jpg?pubId=474428695&videoId=6019522990001
6019565651001,Hey Y'all - Home Tour / DIY Window Box Planters,"Ivy Odom, our Southern Living test kitchen pro, gives a tour of her 1940's renovated home in Birmingham, AL.",https://timeincsecure-a.akamaihd.net/rtmp_uds/474428695/201903/1344/474428695_6019586850001_6019565651001.mp4?pubId=474428695&videoId=6019565651001,https://timeincsecure-a.akamaihd.net/rtmp_uds/474428695/201903/1344/474428695_6019591436001_6019565651001-th.jpg?pubId=474428695&videoId=6019565651001
6019280920001,"
Hallmark Announces New Christmas Series Transforming Alabama Town into a Winter Wonderland
",“We look forward to bringing Hallmark holiday joy to a special town in Alabama for the 2019 Christmas season.”,https://timeincsecure-a.akamaihd.net/rtmp_uds/474428695/201903/264/474428695_6019287737001_6019280920001.mp4?pubId=474428695&videoId=6019280920001,https://timeincsecure-a.akamaihd.net/rtmp_uds/474428695/201903/264/474428695_6019325712001_6019280920001-th.jpg?pubId=474428695&videoId=6019280920001
6018321888001,"
Peep on a Perch Is a Thing and There's Nothing You Can Do About It
","Move over, Elf on the Shelf.",https://timeincsecure-a.akamaihd.net/rtmp_uds/474428695/201903/3544/474428695_6018756692001_6018321888001.mp4?pubId=474428695&videoId=6018321888001,https://timeincsecure-a.akamaihd.net/rtmp_uds/474428695/201903/3544/474428695_6018774407001_6018321888001-vs.jpg?pubId=474428695&videoId=6018321888001
6018332357001,Disney World Resorts Now Offering Mermaid School,"
Ready to dive into a fun-filled activity on your next Disney World vacation?
",https://timeincsecure-a.akamaihd.net/rtmp_uds/474428695/201903/2928/474428695_6018336301001_6018332357001.mp4?pubId=474428695&videoId=6018332357001,https://timeincsecure-a.akamaihd.net/rtmp_uds/474428695/201903/2928/474428695_6018719441001_6018332357001-th.jpg?pubId=474428695&videoId=6018332357001
6018306557001,"
Shop Our Favorite Finds from Bed Bath & Beyond’s First-Ever Private Label Home and Furniture Line
","
With its first-ever private-label house brand, Bed Bath & Beyond is officially going above and beyond.
",https://timeincsecure-a.akamaihd.net/rtmp_uds/474428695/201903/1520/474428695_6018313958001_6018306557001.mp4?pubId=474428695&videoId=6018306557001,https://timeincsecure-a.akamaihd.net/rtmp_uds/474428695/201903/1520/474428695_6018316954001_6018306557001-th.jpg?pubId=474428695&videoId=6018306557001
6018227759001,"
Costco’s Adorable New “Bee House” Has Our Hearts Buzzing
",Saving the bees have never been cuter.,https://timeincsecure-a.akamaihd.net/rtmp_uds/474428695/201903/2784/474428695_6018233794001_6018227759001.mp4?pubId=474428695&videoId=6018227759001,https://timeincsecure-a.akamaihd.net/rtmp_uds/474428695/201903/2784/474428695_6018236134001_6018227759001-vs.jpg?pubId=474428695&videoId=6018227759001
6018136132001,"
Blind Golden Retriever from North Carolina Gets his Own “Seeing-Eye” Puppy
","Prepare to melt, y’all.",https://timeincsecure-a.akamaihd.net/rtmp_uds/474428695/201903/2312/474428695_6018134260001_6018136132001.mp4?pubId=474428695&videoId=6018136132001,https://timeincsecure-a.akamaihd.net/rtmp_uds/474428695/201903/2312/474428695_6018144148001_6018136132001-vs.jpg?pubId=474428695&videoId=6018136132001
6017874541001,Disney World Ticket Prices Just Went Up Today,"
But there's a savvy way to get around the price bump.
",https://timeincsecure-a.akamaihd.net/rtmp_uds/474428695/201903/3408/474428695_6017884672001_6017874541001.mp4?pubId=474428695&videoId=6017874541001,https://timeincsecure-a.akamaihd.net/rtmp_uds/474428695/201903/3408/474428695_6017888973001_6017874541001-th.jpg?pubId=474428695&videoId=6017874541001
6017808588001,This Is the Most Popular Nail Polish Color for 2019 So Far,We didn't see it coming.,https://timeincsecure-a.akamaihd.net/rtmp_uds/474428695/201903/2440/474428695_6017809275001_6017808588001.mp4?pubId=474428695&videoId=6017808588001,https://timeincsecure-a.akamaihd.net/rtmp_uds/474428695/201903/2440/474428695_6017813363001_6017808588001-vs.jpg?pubId=474428695&videoId=6017808588001
6017733687001,15 Beach Reads Perfect for Summer,"Check out some of our favorite beach reads of 2019, and get that summer reading list in order.",https://timeincsecure-a.akamaihd.net/rtmp_uds/474428695/201903/288/474428695_6017739006001_6017733687001.mp4?pubId=474428695&videoId=6017733687001,https://timeincsecure-a.akamaihd.net/rtmp_uds/474428695/201903/288/474428695_6017742139001_6017733687001-th.jpg?pubId=474428695&videoId=6017733687001
6017724305001,BBQ&A - Big Bob Gibson,"
Join Southern Living Test Kitchen director, Robby Melvin, as he visits Big Bob Gibson BBQ in Decatur, AL - where Alabama White Sauce reigns supreme.
",https://timeincsecure-a.akamaihd.net/rtmp_uds/474428695/201903/1136/474428695_6017726640001_6017724305001.mp4?pubId=474428695&videoId=6017724305001,https://timeincsecure-a.akamaihd.net/rtmp_uds/474428695/201903/1136/474428695_6017726245001_6017724305001-th.jpg?pubId=474428695&videoId=6017724305001
6016947931001,Prettiest Spring Polishes You Need Now,"
These fresh spring nail polish colors are sure to leave you feeling fresh, fabulous, and well-prepared for your next salon visit.
",https://timeincsecure-a.akamaihd.net/rtmp_uds/474428695/201903/2303/474428695_6016949346001_6016947931001.mp4?pubId=474428695&videoId=6016947931001,https://timeincsecure-a.akamaihd.net/rtmp_uds/474428695/201903/2303/474428695_6017726204001_6016947931001-th.jpg?pubId=474428695&videoId=6016947931001
6016656799001,Ponytails Are Coming Back Big in 2019—Here Are 23 Pretty Styles to Try Now,"This year, it’s all about the pony.",https://timeincsecure-a.akamaihd.net/rtmp_uds/474428695/201903/641/474428695_6016656317001_6016656799001.mp4?pubId=474428695&videoId=6016656799001,https://timeincsecure-a.akamaihd.net/rtmp_uds/474428695/201903/641/474428695_6016657097001_6016656799001-vs.jpg?pubId=474428695&videoId=6016656799001
6016600779001,"Dolly Parton Donates $200,000 to Volunteer Fire Departments Who Fought the 2016 Great Smoky Mountains Wildfires","
The country legend gives back to the true Sevierville saviors.
",https://timeincsecure-a.akamaihd.net/rtmp_uds/474428695/201903/1311/474428695_6016603123001_6016600779001.mp4?pubId=474428695&videoId=6016600779001,https://timeincsecure-a.akamaihd.net/rtmp_uds/474428695/201903/1311/474428695_6016636258001_6016600779001-th.jpg?pubId=474428695&videoId=6016600779001
6016631518001,"
Hilton Is Recycling Half-used Soap From Hotel Rooms — Here's What'll Happen to It
","
That complimentary bar of soap has another life after you leave your hotel room.
",https://timeincsecure-a.akamaihd.net/rtmp_uds/3281700261001/201903/2767/3281700261001_6016533379001_6016523513001.mp4?pubId=474428695&videoId=6016631518001,https://timeincsecure-a.akamaihd.net/rtmp_uds/3281700261001/201903/2767/3281700261001_6016548215001_6016523513001-vs.jpg?pubId=474428695&videoId=6016631518001
6016558914001,"
Adorable Clydesdale Foal Born Just in Time for Warm Springs Ranch Opening Day
","
Carly is adorned with a black mane and a white face and flaxen stockings—all trademark features of the breed.
",https://timeincsecure-a.akamaihd.net/rtmp_uds/474428695/201903/3207/474428695_6016586622001_6016558914001.mp4?pubId=474428695&videoId=6016558914001,https://timeincsecure-a.akamaihd.net/rtmp_uds/474428695/201903/3207/474428695_6016603422001_6016558914001-vs.jpg?pubId=474428695&videoId=6016558914001
6016264937001,"
Hey Y'all - How To Host A Wedding Shower On A Budget
","
Join Ivy Odom, Southern Living test kitchen pro, as she gives us some tips and tricks for throwing a fancy Kentucky-Derby-themed wedding shower on a strict budget.
",https://timeincsecure-a.akamaihd.net/rtmp_uds/474428695/201903/3985/474428695_6016270189001_6016264937001.mp4?pubId=474428695&videoId=6016264937001,https://timeincsecure-a.akamaihd.net/rtmp_uds/474428695/201903/3985/474428695_6016570884001_6016264937001-th.jpg?pubId=474428695&videoId=6016264937001
6016247172001,Adorable Easter Basket Ideas for Toddlers,"
For many Southerners, waking up to a basket full of goodies on Easter morning sits high on the list of favorite childhood memories.
",https://timeincsecure-a.akamaihd.net/rtmp_uds/474428695/201903/1641/474428695_6016251049001_6016247172001.mp4?pubId=474428695&videoId=6016247172001,https://timeincsecure-a.akamaihd.net/rtmp_uds/474428695/201903/1641/474428695_6016248397001_6016247172001-vs.jpg?pubId=474428695&videoId=6016247172001
6016176617001,27 Spring China Patterns for Your Prettiest Table Ever,"Spring is all about new beginnings, and that includes your dinnerware. These are some of our prettiest picks for spring dinnerware: Southern Living Collection Scalloped Tidbit Plates$24 for set of two; Dillard's Bernardaud 'Frivole' $113 for din...",https://timeincsecure-a.akamaihd.net/rtmp_uds/474428695/201903/1713/474428695_6016177145001_6016176617001.mp4?pubId=474428695&videoId=6016176617001,https://timeincsecure-a.akamaihd.net/rtmp_uds/474428695/201903/1713/474428695_6016180683001_6016176617001-th.jpg?pubId=474428695&videoId=6016176617001
6015820759001,Southern Shrimp And Grits - Erin Murray,"
Shrimp and grits is a beloved dish in the South, and this recipe kicks it up a notch with the addition of smoked Andouille sausage.
",https://timeincsecure-a.akamaihd.net/rtmp_uds/474428695/201903/3807/474428695_6015823437001_6015820759001.mp4?pubId=474428695&videoId=6015820759001,https://timeincsecure-a.akamaihd.net/rtmp_uds/474428695/201903/3807/474428695_6016142049001_6015820759001-th.jpg?pubId=474428695&videoId=6015820759001
6015795713001,"
Chick-fil-A Daddy-Daughter Date Night Is the Sweetest Tradition We Didn't Know Existed
",Calling all papas to princesses!,https://timeincsecure-a.akamaihd.net/rtmp_uds/474428695/201903/1745/474428695_6015798993001_6015795713001.mp4?pubId=474428695&videoId=6015795713001,https://timeincsecure-a.akamaihd.net/rtmp_uds/474428695/201903/1745/474428695_6015801968001_6015795713001-vs.jpg?pubId=474428695&videoId=6015795713001
6015343152001,Cheeseburger Egg Rolls with Special Sauce,"
We love the combination of flavors in this reimagined takeout favorite. Be warned: Our Special Sauce will soon be your new go-to condiment. 
",https://timeincsecure-a.akamaihd.net/rtmp_uds/474428695/201903/471/474428695_6015350573001_6015343152001.mp4?pubId=474428695&videoId=6015343152001,https://timeincsecure-a.akamaihd.net/rtmp_uds/474428695/201903/471/474428695_6015374219001_6015343152001-vs.jpg?pubId=474428695&videoId=6015343152001
6015252198001,BBQ&A - Buttermilk Kitchen - Smoked Deviled Eggs,"
Smoked deviled eggs from Buttermilk Kitchen combine everything we love about the classic dish with a new and exciting BBQ-bacon flavor.
",https://timeincsecure-a.akamaihd.net/rtmp_uds/474428695/201903/3303/474428695_6015252907001_6015252198001.mp4?pubId=474428695&videoId=6015252198001,https://timeincsecure-a.akamaihd.net/rtmp_uds/474428695/201903/3303/474428695_6015264589001_6015252198001-th.jpg?pubId=474428695&videoId=6015252198001
6013918858001,"
Hey Y'all - Southern Living Tour / A Day In The Life
","
Join Ivy Odom, star of Hey Y'all, as she takes us on a guided tour through the Southern Living Magazine headquarters. And, how does a Southern Living test kitchen pro live her day-to-day life? Tune in to find out.
",https://timeincsecure-a.akamaihd.net/rtmp_uds/474428695/201903/1383/474428695_6013921580001_6013918858001.mp4?pubId=474428695&videoId=6013918858001,https://timeincsecure-a.akamaihd.net/rtmp_uds/474428695/201903/1383/474428695_6014017714001_6013918858001-th.jpg?pubId=474428695&videoId=6013918858001
6013532500001,Hummingbird Pancakes,"
All the blissfully moist sweetness of a traditional hummingbird cake is captured in this stack of pancakes.
",https://timeincsecure-a.akamaihd.net/rtmp_uds/474428695/201903/2569/474428695_6013539049001_6013532500001.mp4?pubId=474428695&videoId=6013532500001,https://timeincsecure-a.akamaihd.net/rtmp_uds/474428695/201903/2569/474428695_6013536462001_6013532500001-th.jpg?pubId=474428695&videoId=6013532500001
6010693144001,The South’s Best Restaurants in Every State 2019,"
The ways these restaurants speak to their communities made them winners for our readers.
",https://timeincsecure-a.akamaihd.net/rtmp_uds/474428695/201903/1770/474428695_6012721913001_6010693144001.mp4?pubId=474428695&videoId=6010693144001,https://timeincsecure-a.akamaihd.net/rtmp_uds/474428695/201903/1770/474428695_6010692050001_6010693144001-vs.jpg?pubId=474428695&videoId=6010693144001
6010395844001,The South’s Best Small Towns 2019,"
Put them on your must-see list because they’re worth it.
",https://timeincsecure-a.akamaihd.net/rtmp_uds/474428695/201903/3830/474428695_6010397988001_6010395844001.mp4?pubId=474428695&videoId=6010395844001,https://timeincsecure-a.akamaihd.net/rtmp_uds/474428695/201903/3830/474428695_6010395142001_6010395844001-th.jpg?pubId=474428695&videoId=6010395844001
6010319910001,"The South's Best Town: Beaufort, NC",It’s easy to fall in love with this place.,https://timeincsecure-a.akamaihd.net/rtmp_uds/474428695/201903/3290/474428695_6010324703001_6010319910001.mp4?pubId=474428695&videoId=6010319910001,https://timeincsecure-a.akamaihd.net/rtmp_uds/474428695/201903/3290/474428695_6010321421001_6010319910001-th.jpg?pubId=474428695&videoId=6010319910001
6009932278001,The South's Best Winners 2019,"
Join us in toasting this year’s winners, from the soulful small town to the three-time-winning city to the chef who is a true hometown hero.
",https://timeincsecure-a.akamaihd.net/rtmp_uds/474428695/201903/730/474428695_6009936183001_6009932278001.mp4?pubId=474428695&videoId=6009932278001,https://timeincsecure-a.akamaihd.net/rtmp_uds/474428695/201903/730/474428695_6009938284001_6009932278001-th.jpg?pubId=474428695&videoId=6009932278001
6012742489001,The South’s Best BBQ Joints In Every State 2019,Worth a visit.,https://timeincsecure-a.akamaihd.net/rtmp_uds/474428695/201903/3182/474428695_6012752886001_6012742489001.mp4?pubId=474428695&videoId=6012742489001,https://timeincsecure-a.akamaihd.net/rtmp_uds/474428695/201903/3182/474428695_6012761934001_6012742489001-vs.jpg?pubId=474428695&videoId=6012742489001
6012745721001,"
BBQ&A - Southern Soul BBQ: The Best Smokehouse in the South
","
It's top-notch Southern barbecue with a whole lot of soul.
",https://timeincsecure-a.akamaihd.net/rtmp_uds/474428695/201903/3250/474428695_6012756990001_6012745721001.mp4?pubId=474428695&videoId=6012745721001,https://timeincsecure-a.akamaihd.net/rtmp_uds/474428695/201903/3250/474428695_6012761965001_6012745721001-th.jpg?pubId=474428695&videoId=6012745721001
6012625955001,The South’s Best Restaurants 2019,The best of the best.,https://timeincsecure-a.akamaihd.net/rtmp_uds/474428695/201903/2974/474428695_6012630633001_6012625955001.mp4?pubId=474428695&videoId=6012625955001,https://timeincsecure-a.akamaihd.net/rtmp_uds/474428695/201903/2974/474428695_6012722714001_6012625955001-vs.jpg?pubId=474428695&videoId=6012625955001
6011750341001,The South’s Best Beach Towns 2019,Just add water.,https://timeincsecure-a.akamaihd.net/rtmp_uds/474428695/201903/78/474428695_6011762980001_6011750341001.mp4?pubId=474428695&videoId=6011750341001,https://timeincsecure-a.akamaihd.net/rtmp_uds/474428695/201903/78/474428695_6011764251001_6011750341001-th.jpg?pubId=474428695&videoId=6011750341001
6011680949001,The South’s Best Hotels 2019,Book your stay today.,https://timeincsecure-a.akamaihd.net/rtmp_uds/474428695/201903/3442/474428695_6011698083001_6011680949001.mp4?pubId=474428695&videoId=6011680949001,https://timeincsecure-a.akamaihd.net/rtmp_uds/474428695/201903/3442/474428695_6011696092001_6011680949001-vs.jpg?pubId=474428695&videoId=6011680949001
5752191510001,"
This Is The South's Best Small Town - Aiken, South Carolina
","
To fully capture the charm of Aiken, South Carolina, you need to plan a visit.
",https://timeincsecure-a.akamaihd.net/rtmp_uds/474428695/201903/822/474428695_6012597361001_5752191510001.mp4?pubId=474428695&videoId=5752191510001,https://timeincsecure-a.akamaihd.net/rtmp_uds/474428695/201803/822/474428695_5752884172001_5752191510001-th.jpg?pubId=474428695&videoId=5752191510001
6010855799001,"
Owner of The Red Bar Vows to Reopen After Devastating Fire
","
“Unfortunately the Red Bar sustained heavy fire damage and is now a total loss.”
",https://timeincsecure-a.akamaihd.net/rtmp_uds/474428695/201903/3618/474428695_6010857281001_6010855799001.mp4?pubId=474428695&videoId=6010855799001,https://timeincsecure-a.akamaihd.net/rtmp_uds/474428695/201903/3618/474428695_6010866475001_6010855799001-th.jpg?pubId=474428695&videoId=6010855799001
6011323452001,Why We Love Panama City Beach,"
P.S. Don’t forget to buy an airbrushed T-shirt before you leave.
",https://timeincsecure-a.akamaihd.net/rtmp_uds/474428695/201903/1322/474428695_6012726356001_6011323452001.mp4?pubId=474428695&videoId=6011323452001,https://timeincsecure-a.akamaihd.net/rtmp_uds/474428695/201903/1322/474428695_6011326847001_6011323452001-th.jpg?pubId=474428695&videoId=6011323452001
6011313161001,The South's Best BBQ Joints 2019,We're here for the 'cue,https://timeincsecure-a.akamaihd.net/rtmp_uds/474428695/201903/274/474428695_6011311985001_6011313161001.mp4?pubId=474428695&videoId=6011313161001,https://timeincsecure-a.akamaihd.net/rtmp_uds/474428695/201903/274/474428695_6011309795001_6011313161001-vs.jpg?pubId=474428695&videoId=6011313161001
6011273102001,The South's Best Wedding Venues by State,"
Whether your dream setting is the beach at sunset or a skyline view, we’ve found some great spots to tie the knot.
",https://timeincsecure-a.akamaihd.net/rtmp_uds/474428695/201903/1126/474428695_6011276051001_6011273102001.mp4?pubId=474428695&videoId=6011273102001,https://timeincsecure-a.akamaihd.net/rtmp_uds/474428695/201903/1126/474428695_6011309759001_6011273102001-th.jpg?pubId=474428695&videoId=6011273102001
6011189358001,South's Best Inn: Stonehurst,"
Historic character meets modern design at this beautifully renovated, adults-only bed and breakfast in Midtown Atlanta.
",https://timeincsecure-a.akamaihd.net/rtmp_uds/474428695/201903/2918/474428695_6011190581001_6011189358001.mp4?pubId=474428695&videoId=6011189358001,https://timeincsecure-a.akamaihd.net/rtmp_uds/474428695/201903/2918/474428695_6011316317001_6011189358001-vs.jpg?pubId=474428695&videoId=6011189358001
6011172751001,The South's Best Bars 2019,"It’s 5 o’clock somewhere, right?",https://timeincsecure-a.akamaihd.net/rtmp_uds/474428695/201903/2110/474428695_6011785487001_6011172751001.mp4?pubId=474428695&videoId=6011172751001,https://timeincsecure-a.akamaihd.net/rtmp_uds/474428695/201903/2110/474428695_6011176426001_6011172751001-vs.jpg?pubId=474428695&videoId=6011172751001
6010858610001,"South's Best Small Town Beaufort, SC - 2019","
From historic homes and churches to live oaks and Spanish moss—no wonder readers picked this Lowcountry jewel as the best in the Palmetto State.
",https://timeincsecure-a.akamaihd.net/rtmp_uds/474428695/201903/1370/474428695_6010857942001_6010858610001.mp4?pubId=474428695&videoId=6010858610001,https://timeincsecure-a.akamaihd.net/rtmp_uds/474428695/201903/1370/474428695_6010882486001_6010858610001-vs.jpg?pubId=474428695&videoId=6010858610001
6010859166001,South's Best City: Charleston 2019,"
It’s a place that somehow holds onto hundreds of years of history while constantly reinventing itself.
",https://timeincsecure-a.akamaihd.net/rtmp_uds/474428695/201903/1350/474428695_6010862924001_6010859166001.mp4?pubId=474428695&videoId=6010859166001,https://timeincsecure-a.akamaihd.net/rtmp_uds/474428695/201903/1350/474428695_6010866439001_6010859166001-vs.jpg?pubId=474428695&videoId=6010859166001
6007911773001,Vivian Howard - South's Best Chef,"
Vivian Howard did not set out to become a chef at all, much less a Southern one, and certainly not in Deep Run, her tiny hometown in rural eastern North Carolina.
",https://timeincsecure-a.akamaihd.net/rtmp_uds/474428695/201902/685/474428695_6007921698001_6007911773001.mp4?pubId=474428695&videoId=6007911773001,https://timeincsecure-a.akamaihd.net/rtmp_uds/474428695/201903/685/474428695_6010718270001_6007911773001-vs.jpg?pubId=474428695&videoId=6007911773001
6012775282001,Slow-Cooker Corn Chowder,"
This creamy soup makes an indulgent but not too heavy meal on a hot summer day.
",https://timeincsecure-a.akamaihd.net/rtmp_uds/474428695/201903/1114/474428695_6012779001001_6012775282001.mp4?pubId=474428695&videoId=6012775282001,https://timeincsecure-a.akamaihd.net/rtmp_uds/474428695/201903/1114/474428695_6012775749001_6012775282001-th.jpg?pubId=474428695&videoId=6012775282001
6011344403001,"
Hey Y'all - Ivy and The Grumpy Gardener Plant A Vegetable and Herb Garden
","
Join Southern Living test kitchen pro, Ivy Odom, as she gets expert advise from The Grumpy Gardener on how to plant a vegetable and herb garden.
",https://timeincsecure-a.akamaihd.net/rtmp_uds/474428695/201903/2494/474428695_6011348734001_6011344403001.mp4?pubId=474428695&videoId=6011344403001,https://timeincsecure-a.akamaihd.net/rtmp_uds/474428695/201903/2494/474428695_6011352564001_6011344403001-th.jpg?pubId=474428695&videoId=6011344403001
6011309550001,Sweet Potato Soup,"
Sweet potatoes, buttery Yukon Gold potatoes, healthy carrots, and warm spices all combine to create a savory soup.
",https://timeincsecure-a.akamaihd.net/rtmp_uds/474428695/201903/1542/474428695_6011314369001_6011309550001.mp4?pubId=474428695&videoId=6011309550001,https://timeincsecure-a.akamaihd.net/rtmp_uds/474428695/201903/1542/474428695_6011309773001_6011309550001-vs.jpg?pubId=474428695&videoId=6011309550001
6010791012001,Creamy Crab Dip,"
Fresh crabmeat is a Southern favorite, and we like it served for any meal of the day, in omelets, salads, and soups.
",https://timeincsecure-a.akamaihd.net/rtmp_uds/474428695/201903/1910/474428695_6010796552001_6010791012001.mp4?pubId=474428695&videoId=6010791012001,https://timeincsecure-a.akamaihd.net/rtmp_uds/474428695/201903/1910/474428695_6010800060001_6010791012001-th.jpg?pubId=474428695&videoId=6010791012001
6010250001001,Crawfish Cakes,"
This spicy Louisiana riff on crab cakes strikes the perfect balance between filler and crawfish.
",https://timeincsecure-a.akamaihd.net/rtmp_uds/474428695/201903/2002/474428695_6010257578001_6010250001001.mp4?pubId=474428695&videoId=6010250001001,https://timeincsecure-a.akamaihd.net/rtmp_uds/474428695/201903/2002/474428695_6010260379001_6010250001001-th.jpg?pubId=474428695&videoId=6010250001001
6005841213001,BBQ&A - Martin's BBQ - Whole Hog BBQ Sandwich,"
“A lot of people try to associate a lot of mystery to rubs but there isn’t. It’s a good balance of salt and sugar with preferred ancillary ingredients.”—Pitmaster Pat Martin
",https://timeincsecure-a.akamaihd.net/rtmp_uds/474428695/201902/2701/474428695_6005843368001_6005841213001.mp4?pubId=474428695&videoId=6005841213001,https://timeincsecure-a.akamaihd.net/rtmp_uds/474428695/201903/2701/474428695_6009809875001_6005841213001-th.jpg?pubId=474428695&videoId=6005841213001
6008923335001,Creamy Rice with Scallops,"
This recipe is impressive enough for company but easy enough for a weeknight.
",https://timeincsecure-a.akamaihd.net/rtmp_uds/474428695/201903/450/474428695_6008921942001_6008923335001.mp4?pubId=474428695&videoId=6008923335001,https://timeincsecure-a.akamaihd.net/rtmp_uds/474428695/201903/450/474428695_6008924550001_6008923335001-th.jpg?pubId=474428695&videoId=6008923335001
6008495393001,Sweet Pepper Pasta with Sausage,"
Any sweet peppers will work in this dish, but we like colorful, tender baby bell peppers.
",https://timeincsecure-a.akamaihd.net/rtmp_uds/474428695/201902/531/474428695_6008505338001_6008495393001.mp4?pubId=474428695&videoId=6008495393001,https://timeincsecure-a.akamaihd.net/rtmp_uds/474428695/201902/531/474428695_6008490802001_6008495393001-th.jpg?pubId=474428695&videoId=6008495393001
6007328171001,Hey Y'all - Giant Breakfast In A Tiny Kitchen,"
Here's how to make a giant breakfast in a tiny kitchen.
",https://timeincsecure-a.akamaihd.net/rtmp_uds/474428695/201902/605/474428695_6007340057001_6007328171001.mp4?pubId=474428695&videoId=6007328171001,https://timeincsecure-a.akamaihd.net/rtmp_uds/474428695/201902/605/474428695_6008105938001_6007328171001-vs.jpg?pubId=474428695&videoId=6007328171001
6008013798001,Smothered Enchiladas,"With only 10 minutes of hands-on time, Smothered Enchiladas are the perfect meal for any busy weeknight.",https://timeincsecure-a.akamaihd.net/rtmp_uds/474428695/201902/37/474428695_6008015675001_6008013798001.mp4?pubId=474428695&videoId=6008013798001,https://timeincsecure-a.akamaihd.net/rtmp_uds/474428695/201902/37/474428695_6008036528001_6008013798001-th.jpg?pubId=474428695&videoId=6008013798001
6007472083001,Tenntucky Blackberry Cobbler Sundaes,"
Spoon into the creamy richness of warm caramel sauce and the salty crunch of roasted pecans.
",https://timeincsecure-a.akamaihd.net/rtmp_uds/474428695/201902/61/474428695_6007476104001_6007472083001.mp4?pubId=474428695&videoId=6007472083001,https://timeincsecure-a.akamaihd.net/rtmp_uds/474428695/201902/61/474428695_6007867440001_6007472083001-vs.jpg?pubId=474428695&videoId=6007472083001
6006906745001,Ole Miss Sorority House Tour,"
There’s a new house on the block at Ole Miss. Well, it’s not quite new. The Tri Delta house on Sorority Row has been there for one hundred years, but a major renovation last year has given the old house a lively new look.
",https://timeincsecure-a.akamaihd.net/rtmp_uds/474428695/201902/1107/474428695_6006907272001_6006906745001.mp4?pubId=474428695&videoId=6006906745001,https://timeincsecure-a.akamaihd.net/rtmp_uds/474428695/201902/1107/474428695_6006906176001_6006906745001-th.jpg?pubId=474428695&videoId=6006906745001
6006897580001,Why Every Southerner Should Visit Gatlinburg 2019 UPDATE,"
This little mountain tourist mecca came back. Now it’s our turn.
",https://timeincsecure-a.akamaihd.net/rtmp_uds/474428695/201902/85/474428695_6006902053001_6006897580001.mp4?pubId=474428695&videoId=6006897580001,https://timeincsecure-a.akamaihd.net/rtmp_uds/474428695/201902/85/474428695_6006898367001_6006897580001-th.jpg?pubId=474428695&videoId=6006897580001
6005278099001,Hey Y'all - The Ultimate Southern Crawfish Boil,"
Join Southern Living test Kitchen pro, Ivy Odom, and she hosts the ultimate Southern crawfish boil complete with potatoes, corn, garlic, and of course, andouille sausage.
",https://timeincsecure-a.akamaihd.net/rtmp_uds/474428695/201902/643/474428695_6005321755001_6005278099001.mp4?pubId=474428695&videoId=6005278099001,https://timeincsecure-a.akamaihd.net/rtmp_uds/474428695/201902/643/474428695_6005742883001_6005278099001-th.jpg?pubId=474428695&videoId=6005278099001
6005217958001,Dreamy Lemon Cheesecake,"
A water bath cooks the cheesecake gently, making it extra creamy with a smooth, crack-free top. You can make the lemon curd up to two weeks in advance; just be sure to store it in the refrigerator.
",https://timeincsecure-a.akamaihd.net/rtmp_uds/474428695/201902/2341/474428695_6005226996001_6005217958001.mp4?pubId=474428695&videoId=6005217958001,https://timeincsecure-a.akamaihd.net/rtmp_uds/474428695/201902/2341/474428695_6005234454001_6005217958001-vs.jpg?pubId=474428695&videoId=6005217958001
6004798252001,Bakeshop Blueberry Muffins,"
If you crave blueberry muffins from your local bakery or coffee shop, make them at home with this delicious and easy recipe.
",https://timeincsecure-a.akamaihd.net/rtmp_uds/474428695/201902/1035/474428695_6004798185001_6004798252001.mp4?pubId=474428695&videoId=6004798252001,https://timeincsecure-a.akamaihd.net/rtmp_uds/474428695/201902/1035/474428695_6004813614001_6004798252001-th.jpg?pubId=474428695&videoId=6004798252001
6003910801001,Greek Baked Ziti,"
This easy dish is perfect to prepare and freeze to cook on busy weeknights.
",https://timeincsecure-a.akamaihd.net/rtmp_uds/474428695/201902/3884/474428695_6003914925001_6003910801001.mp4?pubId=474428695&videoId=6003910801001,https://timeincsecure-a.akamaihd.net/rtmp_uds/474428695/201902/3884/474428695_6003914619001_6003910801001-th.jpg?pubId=474428695&videoId=6003910801001
6002273499001,Hey Y'all - Paul's Pastry Shop,Hey Y'all - Paul's Pastry Shop,https://timeincsecure-a.akamaihd.net/rtmp_uds/474428695/201902/796/474428695_6002272196001_6002273499001.mp4?pubId=474428695&videoId=6002273499001,https://timeincsecure-a.akamaihd.net/rtmp_uds/474428695/201902/796/474428695_6002341574001_6002273499001-vs.jpg?pubId=474428695&videoId=6002273499001
6001672038001,Bunny Butt Cookies,"
These delightful Easter cookies are sure to put a smile on any guest’s face this spring.
",https://timeincsecure-a.akamaihd.net/rtmp_uds/474428695/201902/2108/474428695_6001681167001_6001672038001.mp4?pubId=474428695&videoId=6001672038001,https://timeincsecure-a.akamaihd.net/rtmp_uds/474428695/201902/2108/474428695_6001681800001_6001672038001-th.jpg?pubId=474428695&videoId=6001672038001
6001393299001,King Cake Monkey Bread,Don't celebrate Mardi Gras without it.,https://timeincsecure-a.akamaihd.net/rtmp_uds/474428695/201902/380/474428695_6001400149001_6001393299001.mp4?pubId=474428695&videoId=6001393299001,https://timeincsecure-a.akamaihd.net/rtmp_uds/474428695/201902/380/474428695_6001403362001_6001393299001-vs.jpg?pubId=474428695&videoId=6001393299001
6001256102001,Smashed Baby Red Potatoes,"
Crispy on the outside, silky on the inside, these aren’t your everyday roasted potatoes.
",https://timeincsecure-a.akamaihd.net/rtmp_uds/474428695/201902/3900/474428695_6001257522001_6001256102001.mp4?pubId=474428695&videoId=6001256102001,https://timeincsecure-a.akamaihd.net/rtmp_uds/474428695/201902/3900/474428695_6001259645001_6001256102001-vs.jpg?pubId=474428695&videoId=6001256102001
6000076317001,Slow-Cooker Buffalo Chicken Dip,"
Now, this is something to cheer about: Everyone’s favorite game-time dip getting a slow-cooker makeover!
",https://timeincsecure-a.akamaihd.net/rtmp_uds/474428695/201902/2772/474428695_6000079138001_6000076317001.mp4?pubId=474428695&videoId=6000076317001,https://timeincsecure-a.akamaihd.net/rtmp_uds/474428695/201902/2772/474428695_6000078682001_6000076317001-th.jpg?pubId=474428695&videoId=6000076317001
5999698316001,Hey Y'all Galentine's Day / Cookie Decorating,"Join Ivy Odom, Southern Living test Kitchen pro, for the season 2 premiere of Hey Y'all as she teaches her friend to decorate cookies with royal icing for Galentine's Day.",https://timeincsecure-a.akamaihd.net/rtmp_uds/474428695/201902/2611/474428695_5999702071001_5999698316001.mp4?pubId=474428695&videoId=5999698316001,https://timeincsecure-a.akamaihd.net/rtmp_uds/474428695/201902/2611/474428695_6000012228001_5999698316001-th.jpg?pubId=474428695&videoId=5999698316001
5999621509001,Burrito Bowls,"
Charred corn, seasoned black beans, creamy avocado, tangy pico de gallo, cilantro-lime rice—every bite of this burrito in a bowl is a delicious surprise.
",https://timeincsecure-a.akamaihd.net/rtmp_uds/474428695/201902/619/474428695_5999619746001_5999621509001.mp4?pubId=474428695&videoId=5999621509001,https://timeincsecure-a.akamaihd.net/rtmp_uds/474428695/201902/619/474428695_5999620189001_5999621509001-th.jpg?pubId=474428695&videoId=5999621509001
5999207379001,Great Estates - Houston Mansion,This 1890s gem sure is enticing.,https://timeincsecure-a.akamaihd.net/rtmp_uds/474428695/201902/197/474428695_5999209424001_5999207379001.mp4?pubId=474428695&videoId=5999207379001,https://timeincsecure-a.akamaihd.net/rtmp_uds/474428695/201902/197/474428695_5999242922001_5999207379001-vs.jpg?pubId=474428695&videoId=5999207379001
5998757601001,White Chocolate-Covered Strawberries,"
Making the elegant pattern on these white chocolate-covered strawberries is much easier than it looks. Impress guests or a special someone with these stunning sweet treats.
",https://timeincsecure-a.akamaihd.net/rtmp_uds/474428695/201902/2965/474428695_5998765018001_5998757601001.mp4?pubId=474428695&videoId=5998757601001,https://timeincsecure-a.akamaihd.net/rtmp_uds/474428695/201902/2965/474428695_5998765235001_5998757601001-th.jpg?pubId=474428695&videoId=5998757601001
5998246249001,Southwest Black-Eyed Pea Dip,"
This cheesy appetizer will be the talk of any game day gathering.
",https://timeincsecure-a.akamaihd.net/rtmp_uds/474428695/201902/3659/474428695_5998252091001_5998246249001.mp4?pubId=474428695&videoId=5998246249001,https://timeincsecure-a.akamaihd.net/rtmp_uds/474428695/201902/3659/474428695_5998251493001_5998246249001-vs.jpg?pubId=474428695&videoId=5998246249001
5996954786001,Mary's Mango Cake,"
The cake tastes as bright and sunny as a day in Florida.
",https://timeincsecure-a.akamaihd.net/rtmp_uds/474428695/201901/3843/474428695_5996959035001_5996954786001.mp4?pubId=474428695&videoId=5996954786001,https://timeincsecure-a.akamaihd.net/rtmp_uds/474428695/201901/3843/474428695_5996961067001_5996954786001-vs.jpg?pubId=474428695&videoId=5996954786001
5996525480001,"
Facebook’s Nudity Censorship Inspired the Word’s First Fully Clothed King Cake Baby
","
This bizarre king cake story has come to a hilarious conclusion.
",https://timeincsecure-a.akamaihd.net/rtmp_uds/474428695/201901/1107/474428695_5996531064001_5996525480001.mp4?pubId=474428695&videoId=5996525480001,https://timeincsecure-a.akamaihd.net/rtmp_uds/474428695/201901/1107/474428695_5996534751001_5996525480001-th.jpg?pubId=474428695&videoId=5996525480001
5996440313001,Chocolate Peanut Butter-Fudge Bars,Your favorite candy can also be your favorite bar.,https://timeincsecure-a.akamaihd.net/rtmp_uds/474428695/201901/3989/474428695_5996438676001_5996440313001.mp4?pubId=474428695&videoId=5996440313001,https://timeincsecure-a.akamaihd.net/rtmp_uds/474428695/201901/3989/474428695_5996439871001_5996440313001-th.jpg?pubId=474428695&videoId=5996440313001
5995920460001,Great Estates - Charleston Penthouse,"
You probably need some time to gather your pennies. In the meantime, enjoy this peek inside.
",https://timeincsecure-a.akamaihd.net/rtmp_uds/474428695/201901/3341/474428695_5995921925001_5995920460001.mp4?pubId=474428695&videoId=5995920460001,https://timeincsecure-a.akamaihd.net/rtmp_uds/474428695/201901/3341/474428695_5995922791001_5995920460001-th.jpg?pubId=474428695&videoId=5995920460001
5995536227001,Best-Ever Macaroni and Cheese,"
In the South, mac ‘n cheese is like everyone’s favorite aunt—and this best-ever recipe beats out the rest.
",https://timeincsecure-a.akamaihd.net/rtmp_uds/474428695/201901/3110/474428695_5995539264001_5995536227001.mp4?pubId=474428695&videoId=5995536227001,https://timeincsecure-a.akamaihd.net/rtmp_uds/474428695/201901/3110/474428695_5995537512001_5995536227001-th.jpg?pubId=474428695&videoId=5995536227001
5993876000001,West Texas Chili,"
Here, we created an authentic recipe that Texans are sure to appreciate.
",https://timeincsecure-a.akamaihd.net/rtmp_uds/474428695/201901/2798/474428695_5993875176001_5993876000001.mp4?pubId=474428695&videoId=5993876000001,https://timeincsecure-a.akamaihd.net/rtmp_uds/474428695/201901/2798/474428695_5993877506001_5993876000001-th.jpg?pubId=474428695&videoId=5993876000001
5993412011001,Great Estates - Jason Aldean House,"
The castle-like compound includes a bowling alley, pool, and more.
",https://timeincsecure-a.akamaihd.net/rtmp_uds/474428695/201901/678/474428695_5993416234001_5993412011001.mp4?pubId=474428695&videoId=5993412011001,https://timeincsecure-a.akamaihd.net/rtmp_uds/474428695/201901/678/474428695_5993414392001_5993412011001-th.jpg?pubId=474428695&videoId=5993412011001
5993062725001,"33,100 Diamonds Have Been Found at this Arkansas State Park","Yes, you can keep them.",https://timeincsecure-a.akamaihd.net/rtmp_uds/474428695/201901/1558/474428695_5993063042001_5993062725001.mp4?pubId=474428695&videoId=5993062725001,https://timeincsecure-a.akamaihd.net/rtmp_uds/474428695/201901/1558/474428695_5993071065001_5993062725001-th.jpg?pubId=474428695&videoId=5993062725001
5992903348001,"
Grilled Cabbage with Tamarind BBQ Sauce and Tillamook Aged White Cheddar
","
This grilled cabbage recipe is both deliciously tangy and oh-so cheesy.
",https://timeincsecure-a.akamaihd.net/rtmp_uds/474428695/201901/2322/474428695_5992907170001_5992903348001.mp4?pubId=474428695&videoId=5992903348001,https://timeincsecure-a.akamaihd.net/rtmp_uds/474428695/201901/2322/474428695_5992906874001_5992903348001-th.jpg?pubId=474428695&videoId=5992903348001
5992434722001,"
Watch Queen Elizabeth and Prince Harry with a Very Special, Very Prankish Shetland Pony
",Cruachan IV is a serious troublemaker.,https://timeincsecure-a.akamaihd.net/rtmp_uds/474428695/201901/1986/474428695_5992441671001_5992434722001.mp4?pubId=474428695&videoId=5992434722001,https://timeincsecure-a.akamaihd.net/rtmp_uds/474428695/201901/1986/474428695_5992443544001_5992434722001-th.jpg?pubId=474428695&videoId=5992434722001
5992389237001,Sheet Pan Nachos,"
Make tonight's dinner a fast and fun meal that's completely customizable.
",https://timeincsecure-a.akamaihd.net/rtmp_uds/474428695/201901/3402/474428695_5992390890001_5992389237001.mp4?pubId=474428695&videoId=5992389237001,https://timeincsecure-a.akamaihd.net/rtmp_uds/474428695/201901/3402/474428695_5992395273001_5992389237001-th.jpg?pubId=474428695&videoId=5992389237001
5990558196001,Slow-Cooker Vegetable Soup with Bacon,"
Packed with veggies and flavored with a little bacon, this recipe will warm you up on a chilly day.
",https://timeincsecure-a.akamaihd.net/rtmp_uds/474428695/201901/2735/474428695_5990562241001_5990558196001.mp4?pubId=474428695&videoId=5990558196001,https://timeincsecure-a.akamaihd.net/rtmp_uds/474428695/201901/2735/474428695_5990560030001_5990558196001-th.jpg?pubId=474428695&videoId=5990558196001
5990194440001,Women On Fire,"
Meet nine ladies, from pitmasters and cooks to entrepreneurs and teachers, lighting a new spark in Southern barbecue culture
",https://timeincsecure-a.akamaihd.net/rtmp_uds/474428695/201901/3761/474428695_5990198732001_5990194440001.mp4?pubId=474428695&videoId=5990194440001,https://timeincsecure-a.akamaihd.net/rtmp_uds/474428695/201901/3761/474428695_5990201538001_5990194440001-vs.jpg?pubId=474428695&videoId=5990194440001
5990148245001,Great Estates - Austin Mansion,"Featured in Architectural Digest, this four-bedroom, 3.5-bathroom home is a roomy 3,302-square-feet in the Zilker Park / Barton Hills area in Austin, Texas.",https://timeincsecure-a.akamaihd.net/rtmp_uds/474428695/201901/3415/474428695_5990152058001_5990148245001.mp4?pubId=474428695&videoId=5990148245001,https://timeincsecure-a.akamaihd.net/rtmp_uds/474428695/201901/3415/474428695_5990150459001_5990148245001-vs.jpg?pubId=474428695&videoId=5990148245001
5990143459001,"
The One Ingredient You Should Add to Your Boxed Brownie Mix
","
No one will ever know these weren't made from scratch.
",https://timeincsecure-a.akamaihd.net/rtmp_uds/474428695/201901/2553/474428695_5990145372001_5990143459001.mp4?pubId=474428695&videoId=5990143459001,https://timeincsecure-a.akamaihd.net/rtmp_uds/474428695/201901/2553/474428695_5990145114001_5990143459001-vs.jpg?pubId=474428695&videoId=5990143459001
5989697640001,Great Estates - Virginia Horse Farm,As long as you’re willing to pony up the $13.5 million!,https://timeincsecure-a.akamaihd.net/rtmp_uds/474428695/201901/2351/474428695_5989700722001_5989697640001.mp4?pubId=474428695&videoId=5989697640001,https://timeincsecure-a.akamaihd.net/rtmp_uds/474428695/201901/2351/474428695_5989703009001_5989697640001-th.jpg?pubId=474428695&videoId=5989697640001
5989258309001,Old-School Squash Casserole,"
Squash casserole is a staple dish found at meat-and-three diners and at church covered-dish suppers.
",https://timeincsecure-a.akamaihd.net/rtmp_uds/474428695/201901/937/474428695_5989258252001_5989258309001.mp4?pubId=474428695&videoId=5989258309001,https://timeincsecure-a.akamaihd.net/rtmp_uds/474428695/201901/937/474428695_5989257657001_5989258309001-th.jpg?pubId=474428695&videoId=5989258309001
5988397820001,Chicken Casserole D'Iberville,"This recipe, from Charlotte Skelton's book Absolutely a la Carte (A la Carte Alley, $22.95), is named after a community north of Biloxi. When pressed for time, try the Kitchen Express method below.",https://timeincsecure-a.akamaihd.net/rtmp_uds/474428695/201901/2257/474428695_5988399017001_5988397820001.mp4?pubId=474428695&videoId=5988397820001,https://timeincsecure-a.akamaihd.net/rtmp_uds/474428695/201901/2257/474428695_5988401526001_5988397820001-vs.jpg?pubId=474428695&videoId=5988397820001
5987925468001,Chubba Bubba's Broccoli Salad,"
This easy version of broccoli salad features frozen broccoli plus cauliflower and chopped carrot for added color and crispness.
",https://timeincsecure-a.akamaihd.net/rtmp_uds/474428695/201901/3727/474428695_5987929076001_5987925468001.mp4?pubId=474428695&videoId=5987925468001,https://timeincsecure-a.akamaihd.net/rtmp_uds/474428695/201901/3727/474428695_5987931401001_5987925468001-vs.jpg?pubId=474428695&videoId=5987925468001
5987621541001,Great Estates - Fixer Upper Crawford House,"
This four-bedroom Crawford, Texas home was renovated by Chip and Joanna Gaines.
",https://timeincsecure-a.akamaihd.net/rtmp_uds/474428695/201901/3337/474428695_5987627563001_5987621541001.mp4?pubId=474428695&videoId=5987621541001,https://timeincsecure-a.akamaihd.net/rtmp_uds/474428695/201901/3337/474428695_5987626597001_5987621541001-vs.jpg?pubId=474428695&videoId=5987621541001
5987225212001,Stories Of The South: In Search of Blackberries,Less than 10 feet off the road grew hundreds of perfectly ripened blackberries just waiting to be picked.,https://timeincsecure-a.akamaihd.net/rtmp_uds/474428695/201901/3887/474428695_5987226943001_5987225212001.mp4?pubId=474428695&videoId=5987225212001,https://timeincsecure-a.akamaihd.net/rtmp_uds/474428695/201901/3887/474428695_5987228755001_5987225212001-vs.jpg?pubId=474428695&videoId=5987225212001
5987201526001,Caramelized Onion Potato Bake,"
Give your mashed potatoes a little something extra.
",https://timeincsecure-a.akamaihd.net/rtmp_uds/474428695/201901/513/474428695_5987197353001_5987201526001.mp4?pubId=474428695&videoId=5987201526001,https://timeincsecure-a.akamaihd.net/rtmp_uds/474428695/201901/513/474428695_5987198274001_5987201526001-th.jpg?pubId=474428695&videoId=5987201526001
5986786406001,Crispy Potatoes,These potatoes are full of flavor and crunch.,https://timeincsecure-a.akamaihd.net/rtmp_uds/474428695/201901/1344/474428695_5986790480001_5986786406001.mp4?pubId=474428695&videoId=5986786406001,https://timeincsecure-a.akamaihd.net/rtmp_uds/474428695/201901/1344/474428695_5986784275001_5986786406001-vs.jpg?pubId=474428695&videoId=5986786406001
5986085078001,BBQ&A Grilled Octopus,"
Can you barbecue an octopus? Find out in this episode of BBQ&A.
",https://timeincsecure-a.akamaihd.net/rtmp_uds/474428695/201901/480/474428695_5986086542001_5986085078001.mp4?pubId=474428695&videoId=5986085078001,https://timeincsecure-a.akamaihd.net/rtmp_uds/474428695/201901/480/474428695_5986095893001_5986085078001-th.jpg?pubId=474428695&videoId=5986085078001
5846979359001,Butter Pecan Sheet Cake,This Butter Pecan Sheet Cake is sinfully sweet.,https://timeincsecure-a.akamaihd.net/rtmp_uds/474428695/201903/72/474428695_6014528123001_5846979359001.mp4?pubId=474428695&videoId=5846979359001,https://timeincsecure-a.akamaihd.net/rtmp_uds/474428695/201810/72/474428695_5848066843001_5846979359001-th.jpg?pubId=474428695&videoId=5846979359001
5751350112001,Bacon Bow Ties,"
Buttery crackers and salty bacon slices are a match made in snack heaven.
",https://timeincsecure-a.akamaihd.net/rtmp_uds/474428695/201803/2106/474428695_5751356514001_5751350112001.mp4?pubId=474428695&videoId=5751350112001,https://timeincsecure-a.akamaihd.net/rtmp_uds/474428695/201803/2106/474428695_5751365144001_5751350112001-vs.jpg?pubId=474428695&videoId=5751350112001
5690919296001,Cranberry Dreamsicle Trifle,"
This decadent Cranberry Dreamsicle Trifle will be the star of your holiday dessert table.
",https://timeincsecure-a.akamaihd.net/rtmp_uds/474428695/201712/556/474428695_5690928107001_5690919296001.mp4?pubId=474428695&videoId=5690919296001,https://timeincsecure-a.akamaihd.net/rtmp_uds/474428695/201712/556/474428695_5691501190001_5690919296001-th.jpg?pubId=474428695&videoId=5690919296001
5689672970001,"
Excited Georgia Woman Mistakenly Texts News of Her Engagement to the Wrong Person
","
The unintended recipient just happened to be “Buffy, The Vampire Slayer.”
",https://timeincsecure-a.akamaihd.net/rtmp_uds/474428695/201712/3589/474428695_5689704054001_5689672970001.mp4?pubId=474428695&videoId=5689672970001,https://timeincsecure-a.akamaihd.net/rtmp_uds/474428695/201712/3589/474428695_5689699928001_5689672970001-vs.jpg?pubId=474428695&videoId=5689672970001